tag	EP	MP	LP	SP	LSP
DehaBAV1_0849	82.66828864	71.74862959	57.50209739	102.8683754	50.53423658
DehaBAV1_0473	129.4279856	96.70803744	77.40620075	170.1823173	0
DehaBAV1_1201	5.139997221	4.019756535	2.64703959	0	0
DehaBAV1_1348	9.137772838	12.0812422	10.86416673	0	0
DehaBAV1_1202	20.48860003	22.67026518	19.82449873	14.54877204	0
DehaBAV1_0860	25.1288753	25.55015527	17.07952548	11.12869587	0
DehaBAV1_0542	46.54553039	47.1988132	15.41557748	69.39131866	0
DehaBAV1_0861	223.9468234	221.9206014	131.5489597	164.10997	101.0684732
DehaBAV1_0324	131.141318	125.4794462	246.6861369	187.0000976	50.53423658
DehaBAV1_0714	35.4802586	31.79621729	9.359964408	44.51478347	0
DehaBAV1_0240	8.209717784	6.122582868	8.039588856	33.73622282	0
DehaBAV1_0887	52.61358267	60.71512489	32.03312212	57.30318629	101.0684732
DehaBAV1_R0035	0.856666204	1.07647465	0.853715492	33.73622282	0
DehaBAV1_0093	16.06249132	6.923489353	8.65341762	0	0
DehaBAV1_1114	8.638050886	8.284174419	4.194724897	4.029377458	0
DehaBAV1_0674	67.89079663	52.55787652	38.92987371	75.36300368	0
DehaBAV1_0539	41.90525512	31.95160789	10.15186788	78.78307985	50.53423658
DehaBAV1_0158	14.99165856	16.78540592	22.53802955	18.5781495	50.53423658
DehaBAV1_1016	45.90303074	39.10070287	35.52758871	45.56518914	0
DehaBAV1_0262	55.75469208	56.12206402	27.54405981	40.48540601	0
DehaBAV1_0085	0.785277353	1.097215007	1.344993073	0	0
DehaBAV1_0250	57.46802449	63.13326818	14.7640178	30.66628187	101.0684732
DehaBAV1_1221	2.35583206	2.123310215	2.259984157	0	0
DehaBAV1_0797	4.069164467	4.741767411	10.81493169	0	0
DehaBAV1_0107	12.84999305	14.07792118	14.93005196	4.029377458	0
DehaBAV1_0053	9.566105939	9.157879181	6.436380019	4.029377458	0
DehaBAV1_0779	16.70499097	6.899877074	1.72576002	8.058754915	0
DehaBAV1_0484	3.783609066	3.227370217	1.394228116	4.029377458	0
DehaBAV1_0852	6.496385377	10.0569646	13.14823199	0	0
DehaBAV1_1083	82.81106634	72.02922988	21.61099792	45.21505392	0
DehaBAV1_0746	17.77582372	10.193361	4.65509647	11.47883109	0
DehaBAV1_0047	69.67551789	61.56233554	40.47234338	40.29377458	0
DehaBAV1_0991	0.356944251	0.066482808	0.982555162	0	0
DehaBAV1_0946	58.03913529	44.58510792	104.4401175	27.2462057	0
DehaBAV1_1235	448.8930906	492.8533132	1327.807064	282.8698169	555.8766023
DehaBAV1_0759	81.59745589	60.59934346	16.05977583	30.05698059	0
DehaBAV1_1043	73.8160712	48.59221791	52.06245879	34.08635805	0
DehaBAV1_1180	1.998887808	2.385185085	1.302046517	7.099318409	0
DehaBAV1_1157	14.06360351	14.94916147	46.20685582	4.029377458	0
DehaBAV1_0458	29.26942862	20.82453191	12.36890548	22.60752696	0
DehaBAV1_1381	21.91637704	21.85251097	31.95926955	27.2462057	0
DehaBAV1_0406	20.63137773	18.05963394	30.51005433	16.11750983	101.0684732
DehaBAV1_0853	6.710551928	7.570693168	13.88568478	4.029377458	0
DehaBAV1_0286	7.21027388	9.553486247	3.500755082	0	0
DehaBAV1_0061	7.495829281	18.16154508	95.72557293	30.31614665	151.6027097
DehaBAV1_1284	38.47859031	24.14024064	9.298152391	22.60752696	0
DehaBAV1_0622	69.67551789	16.46786204	11.39839087	30.05698059	50.53423658
DehaBAV1_0785	32.41053803	13.16909994	2.259984157	19.18745078	0
DehaBAV1_0555	21.77359934	21.11732306	13.210044	39.33433807	0
DehaBAV1_0278	0.142777701	0.096609775	0.067564078	0	0
DehaBAV1_R0021	0	0.208013541	0.601788215	18.22801428	0
DehaBAV1_1090	60.53774505	42.22679133	6.632783766	34.08635805	0
DehaBAV1_0349	20.34582233	18.40923643	6.294963376	4.029377458	0
DehaBAV1_1263	12.27888225	12.52977414	13.5787704	29.09754409	0
DehaBAV1_1162	49.04414015	44.01470764	136.282588	30.05698059	50.53423658
DehaBAV1_0210	1.713332407	9.89492395	8.358543786	11.47883109	0
DehaBAV1_0378	48.8299736	35.59671585	17.96989905	49.24443137	0
DehaBAV1_0489	203.4582233	178.599792	104.6731793	118.7364123	101.0684732
DehaBAV1_0616	58.25330184	55.88618688	20.33464178	59.76382596	50.53423658
DehaBAV1_0548	0.713888503	0.474971641	0.558841659	0	0
DehaBAV1_0434	14.13499236	11.5957738	6.774200409	14.54877204	0
DehaBAV1_0892	0.356944251	0.445050047	0.829097971	0	0
DehaBAV1_0036	1.784721257	1.645719824	1.903834732	0	0
DehaBAV1_0182	19.63193383	18.02662229	46.079089	4.029377458	0
DehaBAV1_0597	84.5957876	75.89968842	104.6438826	67.47244565	151.6027097
DehaBAV1_0563	17.49026832	28.47434925	33.27282019	74.66273323	0
DehaBAV1_0441	26.55665231	11.624925	11.69955319	4.029377458	0
DehaBAV1_0574	117.0063256	100.98503	32.70301083	63.79320342	101.0684732
DehaBAV1_0102	1.927498958	2.204021997	3.562030674	7.099318409	0
DehaBAV1_0223	14.42054776	32.88567022	3.531124665	39.5259695	0
DehaBAV1_0196	0.142777701	0.558302173	3.875233542	0	0
DehaBAV1_0835	4.85444182	7.854723282	4.483310244	0	0
DehaBAV1_0203	2.141665509	2.758431536	18.67069377	31.62571838	50.53423658
DehaBAV1_0447	98.73077996	109.3966164	63.75465064	78.25100629	0
DehaBAV1_R0031	0.07138885	0	0	0	0
DehaBAV1_1098	6.139441125	6.218576523	16.99884801	0	0
DehaBAV1_1008	28.55554012	49.74738233	31.05739187	45.56518914	0
DehaBAV1_0214	2.213054359	7.940832988	19.39342389	14.54877204	0
DehaBAV1_0876	70.81773949	77.32710992	85.64687257	86.05059515	0
DehaBAV1_0386	16.77637982	22.39663197	28.94403999	27.2462057	0
DehaBAV1_0609	266.7087447	177.6004891	178.5649752	132.2926202	101.0684732
DehaBAV1_0297	1.570554706	1.898782561	6.694059358	0	0
DehaBAV1_0440	61.25163355	34.61731283	24.30205692	30.31614665	0
DehaBAV1_1306	2.141665509	3.649343665	3.310103396	0	0
DehaBAV1_1212	90.80661757	91.17149261	102.9501014	74.0299974	50.53423658
DehaBAV1_1244	2.42722091	2.440519519	4.630478948	7.099318409	0
DehaBAV1_1054	3.355275964	3.553930639	5.779068274	0	0
DehaBAV1_0501	38.90692341	38.45750431	51.37209533	34.08635805	50.53423658
DehaBAV1_0435	18.13276797	15.72984151	10.71699803	4.029377458	0
DehaBAV1_0408	44.33247603	43.9817419	37.54139765	70.80155266	0
DehaBAV1_0536	330.3162103	267.8973877	53.90287222	178.0494408	151.6027097
DehaBAV1_R0017	0.07138885	0.126120622	0.067564078	0	0
DehaBAV1_0468	38.90692341	28.66180792	19.11795195	11.47883109	0
DehaBAV1_1358	6.924718479	4.100452705	3.918180098	0	0
DehaBAV1_0804	10.06582789	8.299831547	6.34419842	7.099318409	0
DehaBAV1_1208	366.5817463	384.3459428	740.3389498	396.8571951	50.53423658
DehaBAV1_0339	1.784721257	8.112127738	3.009477502	7.099318409	50.53423658
DehaBAV1_0894	4.85444182	3.998733669	11.41043142	14.54877204	0
DehaBAV1_1069	24.9860976	20.00862606	8.094575961	8.058754915	0
DehaBAV1_0739	10.56554984	12.98889273	12.44222162	33.47705677	0
DehaBAV1_0640	35.69442515	43.25467236	49.10582269	11.12869587	50.53423658
DehaBAV1_0310	13.84943696	10.27133525	3.789340429	11.12869587	0
DehaBAV1_0365	31.76803838	26.65155392	64.36579727	22.60752696	0
DehaBAV1_0995	25.98554151	25.0452327	12.72505491	27.2462057	50.53423658
DehaBAV1_0171	4.85444182	4.624741431	2.536528956	7.449453634	0
DehaBAV1_0328	36.55109135	54.86473813	85.77624866	58.45425423	0
DehaBAV1_0705	45.18914224	30.65288742	55.56682023	49.85373265	0
DehaBAV1_0267	166.9785208	211.3678721	102.3204772	133.9854548	151.6027097
DehaBAV1_0343	6.282218826	7.348537247	6.116888664	4.029377458	0
DehaBAV1_0120	0.214166551	0.867639616	1.007172683	0	0
DehaBAV1_0546	16.20526902	12.12416053	11.28159175	7.099318409	0
DehaBAV1_1001	34.76637009	26.9652823	15.28566496	12.08813237	0
DehaBAV1_1034	162.9807452	135.2480991	73.11246934	71.24265705	0
DehaBAV1_1055	1.856110108	3.102815446	21.57433985	0	0
DehaBAV1_0426	31.12553873	29.6858016	20.27282976	15.15807332	0
DehaBAV1_0133	51.11441681	61.74421746	165.3915893	81.50288558	101.0684732
DehaBAV1_0697	1.713332407	2.396214681	1.707430985	0	0
DehaBAV1_0004	221.733769	201.2145363	188.5335527	152.0218376	0
DehaBAV1_0152	9.923050191	10.12159905	8.622511611	4.029377458	50.53423658
DehaBAV1_0661	290.6240095	229.6567725	110.1322198	195.7591229	0
DehaBAV1_0665	75.67218131	82.64211119	84.76800313	61.33256375	0
DehaBAV1_0510	45.18914224	41.81434784	41.14115925	84.29022593	0
DehaBAV1_0039	0.785277353	1.287482196	1.885505697	0	0
DehaBAV1_1105	26.84220771	25.30007327	26.03249615	15.50820855	0
DehaBAV1_0656	78.17079107	83.52986421	46.84637496	99.79843448	0
DehaBAV1_0304	13.13554845	13.57538692	21.5863804	15.15807332	50.53423658
DehaBAV1_0579	166.4787989	131.8316045	138.2854292	163.9417731	202.1369463
DehaBAV1_0002	67.60524123	87.51393777	184.742603	81.50288558	0
DehaBAV1_0815	37.4791464	33.07024894	11.58275407	19.18745078	0
DehaBAV1_1380	24.34359795	21.56802135	20.13716518	40.83554123	0
DehaBAV1_R0027	0.285555401	0.593631148	0.651023258	0	0
DehaBAV1_R0019	0	0.096404402	0.423713503	0	0
DehaBAV1_0127	16.06249132	11.75452751	17.17170708	8.058754915	0
DehaBAV1_0337	8.423884335	46.40918325	22.39086085	62.13349646	0
DehaBAV1_0712	4.78305297	3.783541522	2.3092192	4.029377458	0
DehaBAV1_0855	35.3374809	29.63788333	10.92597875	45.56518914	0
DehaBAV1_0112	0.642499653	1.270592828	2.996900528	4.029377458	0
DehaBAV1_0198	2.141665509	2.798885385	19.80670612	22.60752696	0
DehaBAV1_0553	15.49138051	16.03762256	6.454709054	31.0164171	0
DehaBAV1_0341	9.280550538	6.949604906	15.59311577	18.22801428	0
DehaBAV1_1249	7.709995832	12.10453363	13.94120831	15.50820855	0
DehaBAV1_1339	24.8433199	23.09252114	14.03914197	18.92828473	0
DehaBAV1_0730	2.213054359	1.507218588	1.031790205	0	0
DehaBAV1_0248	3.212498263	3.345824351	4.163818889	0	0
DehaBAV1_0526	90.44967332	106.1522683	56.89348427	76.8407723	0
DehaBAV1_1369	9.566105939	13.16937818	78.87627852	14.89890727	50.53423658
DehaBAV1_0373	20.63137773	21.06142457	14.10670605	11.12869587	0
DehaBAV1_0846	23.91526485	25.26522557	25.79997076	26.28676919	0
DehaBAV1_0799	8.780828586	11.75039401	8.327637778	15.15807332	0
DehaBAV1_0498	4.211942167	4.799351491	3.623306265	7.099318409	101.0684732
DehaBAV1_0460	44.40386488	45.36917426	22.89525183	22.60752696	0
DehaBAV1_0114	3.498053664	3.903314489	8.450725386	4.029377458	50.53423658
DehaBAV1_0934	45.11775339	44.26201474	23.32525382	39.87610473	0
DehaBAV1_1036	152.9863062	206.1153275	285.3446815	174.56183	101.0684732
DehaBAV1_0777	29.48359517	27.42054045	18.63296285	41.44484251	0
DehaBAV1_0255	12.27888225	11.96000559	40.98770206	48.98526532	50.53423658
DehaBAV1_0376	28.91248437	25.9380987	26.17444922	11.12869587	0
DehaBAV1_0041	1.070832754	0.948711042	1.29575803	0	0
DehaBAV1_1187	19.06082303	10.2701896	7.689191493	11.47883109	0
DehaBAV1_0475	15.20582511	11.71064999	7.615338928	4.029377458	0
DehaBAV1_1326	0	0	0	0	0
DehaBAV1_1019	215.7371056	227.2930261	69.63686821	127.8455729	0
DehaBAV1_1320	7.424440431	5.316958951	5.042151903	7.449453634	0
DehaBAV1_0137	4.140553317	4.13624353	4.03497922	0	0
DehaBAV1_0207	5.853885724	12.69527298	211.3928315	97.52942624	50.53423658
DehaBAV1_1259	17.91860142	15.17931133	17.459756	4.029377458	0
DehaBAV1_0941	4.497497569	5.694800749	83.35544598	0	0
DehaBAV1_0949	2.712776311	3.11854971	1.277428995	0	0
DehaBAV1_0482	53.25608232	43.29508604	33.07173723	82.02121769	50.53423658
DehaBAV1_0494	38.97831226	35.66444651	30.5598258	40.48540601	50.53423658
DehaBAV1_0453	53.82719312	45.45858981	20.37758833	43.10454947	50.53423658
DehaBAV1_1164	62.89357711	72.44989635	190.6709857	89.91177572	50.53423658
DehaBAV1_1045	44.61803143	43.98416143	37.06898553	31.0164171	0
DehaBAV1_0925	90.09272907	68.13164743	60.17321808	40.83554123	0
DehaBAV1_0638	27.98442932	24.7388282	14.21721669	40.9265104	0
DehaBAV1_0361	85.4524538	82.86566831	44.69061295	63.44306819	0
DehaBAV1_0617	4.069164467	4.639175778	5.48419444	0	0
DehaBAV1_0077	11.0652718	12.47042829	21.35439143	18.5781495	50.53423658
DehaBAV1_0650	22.34471014	19.17389589	11.85301038	8.058754915	0
DehaBAV1_0977	0	0	0	0	0
DehaBAV1_0748	8.281106634	5.008314764	3.469849074	4.029377458	0
DehaBAV1_0664	19.20360073	26.43522559	55.03152324	56.43471895	50.53423658
DehaBAV1_1210	83.31078829	72.31352079	135.9138616	98.92996714	101.0684732
DehaBAV1_0529	179.1860142	156.054914	71.80681647	99.44829925	101.0684732
DehaBAV1_0095	6.068052275	5.099055307	2.98485998	12.08813237	0
DehaBAV1_1269	16.49082442	68.93979204	94.44263106	35.30496061	0
DehaBAV1_0803	14.13499236	12.4294771	8.984949523	14.19863682	0
DehaBAV1_0294	0.285555401	0.371106124	0.202692234	0	0
DehaBAV1_0851	3.997775616	4.289050875	2.935624937	0	0
DehaBAV1_0448	69.53274019	92.40935441	50.27435032	96.56998973	101.0684732
DehaBAV1_0264	114.8646601	121.544313	197.2989416	101.9999081	0
DehaBAV1_1275	7.21027388	19.27500542	2.794208294	0	0
DehaBAV1_0575	117.2204922	112.8843841	40.8284928	144.5958185	0
DehaBAV1_1237	16.34804672	14.90417995	11.33082679	12.08813237	0
DehaBAV1_0295	0.571110802	0.85353888	2.088197931	0	0
DehaBAV1_1066	77.67106912	91.18159511	218.6119958	58.80438945	50.53423658
DehaBAV1_1239	17.63304602	20.27263511	19.33268473	35.04579456	0
DehaBAV1_1076	83.45356599	75.81205262	41.39883858	67.92324314	0
DehaBAV1_1126	50.54330601	52.80844589	103.6167716	37.41546506	0
DehaBAV_RF0058	81.59745589	265.7578804	534.0330652	284.6880276	0
DehaBAV1_0756	18.63248993	20.41676237	8.020723396	25.67746791	0
DehaBAV1_0496	45.11775339	46.04301985	44.91845913	75.97230496	0
DehaBAV1_0767	71.03190604	64.11129742	224.301416	42.14511296	0
DehaBAV1_0624	28.98387322	14.53742831	8.726733759	38.11573551	0
DehaBAV1_0379	54.75524818	32.38799677	13.65891145	60.72326246	50.53423658
DehaBAV1_0166	169.762686	228.8012787	114.9805015	256.5830477	101.0684732
DehaBAV1_1261	12.3502711	15.09349029	55.01212135	33.82719199	0
DehaBAV1_0633	29.48359517	27.19226401	28.22491623	26.28676919	0
DehaBAV1_0456	25.05748645	24.91197131	11.07889952	30.31614665	50.53423658
DehaBAV1_0772	23.2727652	34.34291446	46.44727897	15.50820855	0
DehaBAV1_0038	9.280550538	7.583561665	6.331621446	14.54877204	0
DehaBAV1_0890	21.20248854	29.33407205	24.97087278	23.21682824	50.53423658
DehaBAV1_0173	4.640275269	18.12790028	159.4590638	62.48363168	50.53423658
DehaBAV1_0587	259.9981928	304.5270073	360.9841728	207.4971201	0
DehaBAV1_0577	43.90414293	30.80181255	15.29248987	19.53758601	50.53423658
DehaBAV1_0960	60.1808008	69.87300599	12.93403563	42.14511296	0
DehaBAV1_0006	45.11775339	40.62438777	31.91739585	18.5781495	50.53423658
DehaBAV1_0764	33.48137079	29.31241034	16.35464966	22.25739173	0
DehaBAV1_1073	14.06360351	10.46069435	8.714693211	19.18745078	0
DehaBAV1_0837	6.139441125	8.045975693	10.74107913	0	0
DehaBAV1_1052	24.2722091	24.29849228	11.99442702	18.5781495	0
DehaBAV1_0437	44.33247603	29.53158456	30.25866348	33.3860876	0
DehaBAV1_0136	7.35305158	11.28590352	22.43434383	28.39727364	0
DehaBAV1_0393	14.70610316	17.22297497	18.6821979	11.47883109	0
DehaBAV1_1189	1.213610455	1.417659181	1.209864917	0	0
DehaBAV1_1296	57.89635759	61.0056825	148.684933	72.55222878	0
DehaBAV1_1254	32.69609343	64.7241168	101.7851802	46.52462565	0
DehaBAV1_1346	24.9860976	23.7331104	23.42947596	33.12692154	0
DehaBAV1_0503	50.11497291	54.70056992	73.96511199	47.74322821	101.0684732
DehaBAV1_0724	50.11497291	94.04994173	142.8122224	33.73622282	50.53423658
DehaBAV1_0993	1.856110108	2.108516224	2.818825816	4.029377458	0
DehaBAV1_1085	32.26776033	24.19042324	8.818915358	11.12869587	0
DehaBAV1_0141	0.214166551	0.974046746	1.081025248	0	0
DehaBAV1_0743	13.49249271	11.86903791	14.07580004	15.15807332	50.53423658
DehaBAV1_0720	104.5132768	83.57981303	91.23114637	74.312598	50.53423658
DehaBAV1_0964	17.06193522	15.06032437	26.67830377	8.058754915	0
DehaBAV1_0561	37.12220215	54.43996755	78.13414651	57.30318629	0
DehaBAV1_0735	57.25385794	62.28197138	50.73940111	57.56235235	0
DehaBAV1_0614	21.05971084	22.91331903	18.75551403	40.83554123	50.53423658
DehaBAV1_1095	5.282774922	3.832355113	2.4014008	4.029377458	0
DehaBAV1_0414	15.20582511	13.3621974	13.03825778	29.35671014	0
DehaBAV1_0487	34.19525929	30.46207413	34.47639662	60.11396118	0
DehaBAV1_1222	39.40664536	40.48849867	26.43895347	33.73622282	50.53423658
DehaBAV1_0318	15.99110247	17.59432527	16.91924338	11.47883109	0
DehaBAV1_0754	4.711664119	5.468527904	6.362527454	0	0
DehaBAV1_1386	7.21027388	6.868815988	10.21314347	0	0
DehaBAV1_1103	7.924162383	8.604505966	7.486499259	0	0
DehaBAV1_1312	15.41999166	17.00590462	28.53236703	8.058754915	0
DehaBAV1_0186	0	0.02971622	0	0	0
DehaBAV1_1338	30.19748367	23.61181653	37.80014984	12.08813237	101.0684732
DehaBAV1_0081	0.214166551	0.066482808	0	0	0
DehaBAV1_0695	10.70832754	14.19509813	37.95828624	29.70684537	0
DehaBAV1_0809	22.27332129	20.41440955	8.290979708	4.029377458	0
DehaBAV1_0725	6.068052275	6.916817545	14.12449866	11.12869587	0
DehaBAV1_1028	14.06360351	14.00387175	8.714693211	4.029377458	0
DehaBAV1_1229	21.77359934	19.07433376	19.8983513	16.11750983	0
DehaBAV1_0581	9.63749479	7.151338469	7.805990614	0	0
DehaBAV1_0932	118.5768803	132.8798071	136.4590534	45.47421997	0
DehaBAV1_1148	1.927498958	1.266741839	2.634462616	0	0
DehaBAV1_1293	20.98832199	15.31579718	31.28938083	11.12869587	50.53423658
DehaBAV1_0253	16.27665787	23.39045607	64.78375872	37.156299	0
DehaBAV1_0187	0.07138885	0.19260343	0.135128156	0	0
DehaBAV1_0151	1.499165856	3.422566364	4.207301871	0	0
DehaBAV1_1268	6.210829976	4.573678192	10.16966049	0	0
DehaBAV1_0438	39.90636731	21.24751046	14.83787036	31.62571838	0
DehaBAV1_R0007	0.214166551	0.089354034	0.135128156	14.19863682	0
DehaBAV1_1161	31.12553873	37.48007031	191.1270659	48.98526532	50.53423658
DehaBAV1_0606	39.40664536	15.76469206	13.3944072	14.54877204	101.0684732
DehaBAV1_0626	252.71653	259.4414427	297.4891985	199.0882299	50.53423658
DehaBAV1_0984	20.84554429	20.1610132	16.82759821	4.029377458	0
DehaBAV1_0031	44.40386488	46.29355754	34.93262541	32.77678632	0
DehaBAV1_0523	5.853885724	9.020610184	13.20375552	0	0
DehaBAV1_1319	2.213054359	1.872506584	3.88727409	0	0
DehaBAV1_0516	44.40386488	30.47251364	30.4304497	27.59634092	0
DehaBAV1_1230	2.35583206	2.851960712	1.38793963	0	0
DehaBAV1_0355	11.4936049	10.67489512	5.736121718	23.56696346	0
DehaBAV1_1155	11.2080495	8.586384359	12.80519596	4.029377458	0
DehaBAV1_0584	6.496385377	6.994115117	8.106616509	7.449453634	50.53423658
DehaBAV1_0383	16.70499097	17.17193777	18.76809101	14.89890727	0
DehaBAV1_0734	6.853329628	5.163252977	8.812626872	7.449453634	0
DehaBAV1_0025	19.27498958	19.6166575	16.23156205	4.029377458	0
DehaBAV1_0678	126.5724316	89.04131894	46.30011027	88.57876944	50.53423658
DehaBAV1_1185	5.568330323	4.669543609	7.17329639	8.058754915	0
DehaBAV1_0806	139.6365912	158.3606342	368.8359407	128.2866773	0
DehaBAV1_0568	74.24440431	71.19375917	35.76801187	42.49524819	50.53423658
DehaBAV1_1071	89.16467402	60.67470277	49.22998315	53.53297489	0
DehaBAV1_0813	12.4930488	13.02247225	3.224210284	28.39727364	0
DehaBAV1_R0023	0	0	0	0	0
DehaBAV1_0051	324.1053803	308.9809456	429.6667097	256.8090861	252.6711829
DehaBAV1_0701	68.74746283	59.32403746	26.6657268	57.39415546	0
DehaBAV1_0291	4.069164467	5.711921523	10.03506876	14.54877204	0
DehaBAV1_R0010	0	0.169937578	0.270256312	0	0
DehaBAV1_0972	10.77971639	9.438039388	23.21420676	14.54877204	0
DehaBAV1_1173	3.498053664	3.586223965	3.162934692	4.029377458	0
DehaBAV1_0302	0.214166551	0.520919465	1.277428995	0	0
DehaBAV1_1136	146.8468651	141.4545254	53.56612469	102.8683754	0
DehaBAV1_0012	16.91915752	17.95613753	25.86124635	15.50820855	0
DehaBAV1_0303	5.282774922	6.398224863	7.093155339	11.12869587	0
DehaBAV1_0201	1.784721257	1.715154994	14.91225935	4.029377458	50.53423658
DehaBAV1_1175	5.139997221	3.974835577	4.096254811	15.50820855	0
DehaBAV1_0913	83.59634369	89.3718349	112.0957209	56.43471895	0
DehaBAV1_1372	41.76247742	30.70138632	29.77942645	22.25739173	0
DehaBAV1_1021	14.56332546	14.44462172	5.103427494	11.12869587	0
DehaBAV1_0289	0	0	0	0	0
DehaBAV1_0936	8.566662035	417.4083308	4774.542115	771.0324044	454.8081292
DehaBAV1_0578	208.883776	196.0149024	170.4427118	262.2390044	303.2054195
DehaBAV1_R0044	0.142777701	0.341389904	0.58345918	22.60752696	0
DehaBAV1_1119	18.56110108	15.16245085	16.39130773	7.099318409	0
DehaBAV1_1199	2.641387461	3.490888074	6.945986635	8.058754915	0
DehaBAV1_0604	43.11886558	19.8689863	15.14478474	21.99822568	50.53423658
DehaBAV1_0750	183.7549007	156.7483396	76.01143621	105.5881812	0
DehaBAV1_0704	21.48804394	17.21090194	36.85893196	14.19863682	0
DehaBAV1_0722	16.06249132	14.48985738	6.565219688	21.99822568	0
DehaBAV1_0089	2.569998611	7.824506417	20.52475704	14.54877204	0
DehaBAV1_0317	40.83442237	37.30878694	36.47977429	8.058754915	0
DehaBAV1_R0040	2.42722091	3.348776712	2.106526966	0	0
DehaBAV1_1115	30.91137218	37.40932388	30.53520828	40.83554123	0
DehaBAV1_0635	149.0599194	136.4889477	100.1212322	150.4530998	0
DehaBAV1_0519	39.62081191	35.48296023	17.073237	22.95766218	101.0684732
DehaBAV1_0531	13.27832615	12.83078733	9.55583173	30.66628187	0
DehaBAV1_0947	6.424996526	6.939920176	4.206765445	0	0
DehaBAV1_0594	4.497497569	2.608736975	4.206765445	7.449453634	0
DehaBAV1_1322	1.284999305	9.002184302	1.166918361	0	0
DehaBAV1_1355	16.13388017	13.01806051	12.50403364	0	0
DehaBAV1_0999	70.74635064	62.41022617	50.84469611	61.5917298	0
DehaBAV1_0551	74.67273741	65.25893874	56.13770243	89.72983738	50.53423658
DehaBAV1_1096	36.12275825	32.49262129	79.56088991	36.80616378	0
DehaBAV1_1146	71.74579455	57.70275898	43.56771399	30.66628187	0
DehaBAV1_0191	23.7010983	19.15602746	28.0903245	22.60752696	101.0684732
DehaBAV1_0718	4.568886419	4.153466509	4.120872332	0	0
DehaBAV1_0016	3.498053664	10.87006524	76.4371468	14.54877204	0
DehaBAV1_1285	15.77693591	14.06858237	3.807669464	33.73622282	0
DehaBAV1_0234	35.12331434	32.78419677	42.14833193	47.67569359	50.53423658
DehaBAV1_1022	163.9088003	152.5192724	237.1879744	137.0457026	0
DehaBAV1_0801	1.070832754	2.226277103	1.658195942	11.12869587	50.53423658
DehaBAV1_1013	12.13610455	15.70625761	10.93748287	7.099318409	0
DehaBAV1_0098	6.282218826	7.388836825	11.32453831	4.029377458	0
DehaBAV1_1158	6.068052275	8.666849123	22.51341203	11.47883109	50.53423658
DehaBAV1_0954	42.40497707	526.0374468	19.60294104	188.0505032	50.53423658
DehaBAV1_1145	13.56388156	6.675262827	5.017534381	0	0
DehaBAV1_1178	9.494717089	8.453255013	6.853805035	7.449453634	0
DehaBAV1_0314	36.12275825	25.93563753	27.30470951	25.67746791	0
DehaBAV1_0270	54.68385933	77.02662626	209.7102572	56.95305106	0
DehaBAV1_0382	23.4155429	32.20636045	52.33003297	23.56696346	0
DehaBAV1_1231	11.27943835	10.98628015	6.988933191	18.5781495	50.53423658
DehaBAV1_0968	5.496941473	5.325180998	1.369610595	0	0
DehaBAV1_0538	205.8854442	148.7322698	37.5665516	157.9935226	0
DehaBAV1_0374	23.5583206	21.6643297	17.57655513	19.18745078	0
DehaBAV1_1112	2.49860976	1.952884755	4.366511123	0	0
DehaBAV1_0184	1.356388156	1.19595565	2.468964878	0	0
DehaBAV1_0013	4.426108718	6.757781325	42.64536157	0	0
DehaBAV1_0274	0.785277353	0.974868239	1.615249385	0	0
DehaBAV1_0647	25.84276381	23.47121992	17.52210445	56.43471895	0
DehaBAV1_0228	18.48971223	38.75697667	29.79775548	14.54877204	0
DehaBAV1_0451	74.10162661	63.81549197	36.45515677	51.9642371	101.0684732
DehaBAV1_0583	59.68107885	49.26470587	33.42788666	26.63690442	0
DehaBAV1_0867	70.24662869	61.45758466	33.5933844	59.76382596	50.53423658
DehaBAV1_1051	1.356388156	1.337486383	1.074736761	0	0
DehaBAV1_0353	36.0513694	31.85506579	18.41194158	42.49524819	0
DehaBAV1_1344	26.91359656	19.87851676	8.345966812	12.08813237	0
DehaBAV1_1102	10.56554984	13.60287856	14.81217999	14.19863682	0
DehaBAV1_0618	8.780828586	9.684626232	12.00646757	12.08813237	151.6027097
DehaBAV1_0043	13.99221466	10.85348441	8.966620488	18.5781495	0
DehaBAV1_0177	21.20248854	18.92292523	21.08359869	32.77678632	0
DehaBAV1_0364	46.18858614	41.92243629	28.36686929	68.1727161	101.0684732
DehaBAV1_0630	51.75691646	94.27650843	184.3796287	105.8707818	50.53423658
DehaBAV1_0057	75.38662591	110.9264744	163.71414	72.46125961	0
DehaBAV1_1383	38.40720146	28.92103186	16.19544041	37.41546506	50.53423658
DehaBAV1_0780	12.42165995	6.15786074	0.58345918	12.08813237	0
DehaBAV1_0411	228.2301544	190.8455663	75.00426353	146.4237224	50.53423658
DehaBAV1_0492	37.6219241	34.44625564	19.8611568	26.28676919	151.6027097
DehaBAV1_1361	15.99110247	21.01469308	21.28629093	8.058754915	0
DehaBAV1_0612	65.03524262	51.92549507	51.50039857	76.8407723	50.53423658
DehaBAV1_0156	0.999443904	1.588623625	1.860888176	0	0
DehaBAV1_1250	99.73022386	120.545002	253.99641	100.6903364	50.53423658
DehaBAV1_0870	213.4526624	183.6390804	183.8874269	162.8913674	151.6027097
DehaBAV1_1345	40.62025582	32.98464603	21.26167341	55.03417805	0
DehaBAV1_1209	97.01744755	84.84726515	114.9371671	100.6903364	101.0684732
DehaBAV1_R0018	0.07138885	0.066688182	0	0	0
DehaBAV1_0985	11.99332685	11.44157664	9.605066773	7.449453634	0
DehaBAV1_0874	109.4391075	102.2887395	136.4423336	78.60114152	50.53423658
DehaBAV1_1152	43.11886558	36.56531973	21.71629292	56.34374978	0
DehaBAV1_0507	44.04692063	39.89053196	58.336411	44.95588786	101.0684732
DehaBAV_RF0055	19.56054498	10.7895754	2.874349346	0	0
DehaBAV1_R0034	0.428333102	0.431154685	0.135128156	7.449453634	0
DehaBAV1_0226	44.40386488	84.26651762	6.509696158	38.11573551	0
DehaBAV1_1341	18.56110108	14.37262602	4.796513112	7.099318409	0
DehaBAV1_1130	3.926386766	4.202315591	2.597804547	0	0
DehaBAV1_0643	63.17913251	62.35387199	56.39016614	75.88133579	50.53423658
DehaBAV1_1352	80.66940083	93.13652468	145.4907044	49.24443137	0
DehaBAV1_1128	16.34804672	16.85967303	38.07669464	7.099318409	0
DehaBAV1_0808	19.48915613	21.9730794	8.149563065	7.099318409	0
DehaBAV1_0769	17.13332407	18.17283496	23.14664268	4.029377458	0
DehaBAV1_0500	50.97163911	50.97710253	73.7634926	72.29306272	0
DehaBAV1_1142	15.56276936	14.49528983	19.33268473	18.5781495	0
DehaBAV1_1366	16.84776867	13.53879967	36.41167379	48.28499487	0
DehaBAV1_0247	219.5207147	190.9803249	161.2482451	92.95828213	0
DehaBAV1_1314	22.20193244	35.27126646	34.19463619	7.099318409	101.0684732
DehaBAV1_1240	75.24384821	81.49000895	61.74444806	60.11396118	50.53423658
DehaBAV1_0761	12.0647157	12.11093239	14.21721669	7.099318409	50.53423658
DehaBAV1_0465	11.7791603	10.06347598	5.447536371	4.029377458	0
DehaBAV1_0308	39.12108996	38.1725623	31.02594943	18.22801428	0
DehaBAV1_0940	4.997219521	7.55026039	83.24439892	7.099318409	0
DehaBAV1_0877	38.47859031	29.5742275	17.17799557	15.50820855	0
DehaBAV1_1124	3.854997916	5.551608114	5.355354771	0	0
DehaBAV1_0476	53.18469347	51.38013522	37.48065849	54.77501199	0
DehaBAV1_0432	19.98887808	15.67416635	18.36163369	11.12869587	50.53423658
DehaBAV1_1121	1.784721257	2.813798155	5.367395319	0	0
DehaBAV1_0570	5.282774922	4.877890761	3.60497723	0	0
DehaBAV1_1092	25.1288753	26.70996895	30.79235119	30.40711582	0
DehaBAV1_0049	21.70221049	14.49950046	10.7164616	8.058754915	50.53423658
DehaBAV1_0008	12.2074934	10.67776089	15.0583552	8.058754915	0
DehaBAV1_0445	89.94995137	46.372879	62.7154991	61.07339769	101.0684732
DehaBAV1_0775	4.92583067	4.881988768	3.813957951	4.029377458	0
DehaBAV1_0130	57.68219104	67.80056168	31.38209886	42.14511296	0
DehaBAV1_1191	121.5752121	118.5056763	83.81957253	98.7480288	0
DehaBAV1_1276	12.0647157	26.03885519	4.231382967	15.15807332	0
DehaBAV1_0900	47.5449743	73.84869471	43.92746978	29.35671014	0
DehaBAV1_1183	16.84776867	14.4720495	27.55610036	31.62571838	0
DehaBAV1_0935	11.7791603	12.77939048	11.95723253	22.95766218	0
DehaBAV1_0340	0.356944251	1.466318502	0.33782039	0	0
DehaBAV1_0082	9.351939389	11.63263313	26.49340414	4.029377458	0
DehaBAV1_1331	3.355275964	6.132011122	41.07827438	7.099318409	0
DehaBAV1_1207	21.77359934	20.43971073	11.9698095	16.11750983	50.53423658
DehaBAV1_0146	2.284443209	9.594091062	15.51458399	7.099318409	0
DehaBAV1_0020	19.06082303	17.03549972	16.96272636	18.5781495	0
DehaBAV1_1108	375.9336856	364.3292619	291.0164577	373.8995329	0
DehaBAV1_0320	86.95161966	75.91631465	114.0671197	70.00061994	0
DehaBAV1_1087	32.69609343	23.0411825	10.26237852	26.28676919	0
DehaBAV1_0479	174.3315724	126.0059931	89.44303791	152.1128068	0
DehaBAV1_0602	39.76358961	80.03692333	29.43585399	100.5993672	0
DehaBAV1_0220	2.712776311	2.451590758	1.651907455	0	0
DehaBAV1_0559	116.5779925	114.1872925	60.05173975	94.10935006	505.3423658
DehaBAV1_0514	74.38718201	62.71337308	48.73241708	12.08813237	101.0684732
DehaBAV1_1375	155.3421382	143.2241214	145.3775117	123.0152627	50.53423658
DehaBAV1_0162	42.26219937	46.46403365	67.36016429	40.83554123	0
DehaBAV1_1266	3.926386766	3.487277948	5.306119728	7.449453634	0
DehaBAV1_0885	150.4876964	137.5969188	70.15222689	95.67808785	0
DehaBAV1_0847	2366.39761	3272.835141	9363.049991	2263.245184	1111.753205
DehaBAV1_0283	0	0.02971622	0.178074712	0	0
DehaBAV1_1384	16.70499097	22.85430253	20.11937257	26.63690442	50.53423658
DehaBAV1_0832	2.641387461	3.204020568	1.326664038	11.47883109	0
DehaBAV1_0219	2.998331712	2.322964013	0.872044527	0	0
DehaBAV1_0821	0.999443904	1.560550391	0.448331024	0	0
DehaBAV1_0547	58.18191299	38.66892545	41.24538139	34.69565933	50.53423658
DehaBAV1_0217	9.923050191	8.832977356	8.996990071	8.058754915	0
DehaBAV1_0676	1.570554706	3.461130209	2.732932703	15.15807332	0
DehaBAV1_0671	40.47747812	34.10119789	20.51218006	26.63690442	50.53423658
DehaBAV1_0791	37.83609066	52.81368101	70.69488521	45.21505392	50.53423658
DehaBAV1_0843	1.070832754	0.548915564	0.202692234	4.029377458	0
DehaBAV1_0334	15.91971362	130.808064	73.45243544	117.9589141	50.53423658
DehaBAV1_1336	37.26497985	40.60715437	74.97228467	30.66628187	0
DehaBAV1_1297	3.498053664	5.814715224	11.15904057	7.099318409	0
DehaBAV1_0564	249.5040318	285.2628214	266.4058771	299.7551318	0
DehaBAV1_0391	31.33970528	25.32578189	17.24555965	12.08813237	0
DehaBAV1_0733	13.92082581	14.57061696	33.43256587	14.54877204	0
DehaBAV1_0149	0.499721952	3.0260474	5.110252406	0	0
DehaBAV1_1272	7.638606981	20.91440032	1.547685307	0	0
DehaBAV1_0263	22.98720979	36.83076873	115.6812962	29.44767931	0
DehaBAV1_0591	14.49193661	15.40033818	10.60648739	38.11573551	50.53423658
DehaBAV1_0239	7.35305158	7.466452396	3.07704158	0	0
DehaBAV1_0902	96.01800365	105.640832	71.84869017	75.62216973	50.53423658
DehaBAV1_R0025	0	0	0.067564078	0	0
DehaBAV1_0654	0.499721952	0.355696014	0.067564078	0	0
DehaBAV1_0111	0.07138885	0.533094706	2.59151606	0	0
DehaBAV1_0693	4.997219521	2.965947737	1.590631864	8.058754915	0
DehaBAV1_0662	86.80884196	71.88923098	38.1065278	107.5070542	0
DehaBAV1_0280	0	0.103249396	0.178074712	0	0
DehaBAV1_0682	153.4146393	166.7527537	207.3419082	196.3684242	0
DehaBAV1_0461	55.25497013	42.8567589	23.23360864	45.47421997	0
DehaBAV1_0074	6.353607676	43.94865639	55.60040836	30.31614665	0
DehaBAV1_0033	8.638050886	6.787035695	3.003189015	7.449453634	0
DehaBAV1_R0036	0	0	0.067564078	0	0
DehaBAV1_0119	12.0647157	7.864296347	11.49057247	0	0
DehaBAV1_0827	19.06082303	10.73911502	5.116004468	58.45425423	0
DehaBAV1_1030	7.424440431	8.94198432	6.644824314	7.099318409	0
DehaBAV1_0771	14.99165856	8.270526074	13.19800345	7.099318409	0
DehaBAV1_1061	5.711108024	6.475968673	3.893562577	7.099318409	0
DehaBAV1_R0001	0	0	0	0	0
DehaBAV1_0920	75.88634786	48.49763298	52.70451143	64.14333864	0
DehaBAV1_0988	1.570554706	0.647450833	5.588416588	0	50.53423658
DehaBAV1_0327	14.70610316	17.19788013	15.51297472	7.449453634	0
DehaBAV1_0996	8.209717784	6.947792037	3.783051942	25.67746791	0
DehaBAV1_1282	6.068052275	2.110611601	0.761533893	0	0
DehaBAV1_0544	49.6866398	40.71405319	60.72416198	48.89429615	50.53423658
DehaBAV1_0265	39.33525651	51.11910265	24.80483862	61.8743304	0
DehaBAV1_1144	7.781384682	8.890715708	20.05756055	11.12869587	0
DehaBAV1_0708	20.55998888	16.96768862	15.78376745	4.029377458	0
DehaBAV1_0023	16.70499097	11.28078811	10.96892531	23.56696346	0
DehaBAV1_0330	713.5315587	677.5803565	673.901823	400.7956033	252.6711829
DehaBAV1_0666	4.640275269	33.86743786	59.24818353	70.63335577	50.53423658
DehaBAV1_0672	23.91526485	19.94446388	12.1782538	34.43649327	0
DehaBAV1_0607	51.18580566	37.40095895	26.65314982	11.12869587	0
DehaBAV1_0528	21.34526624	17.09999647	6.835476	8.058754915	0
DehaBAV1_0914	21.13109969	21.35813011	41.90737235	23.56696346	0
DehaBAV1_0497	4.354719868	4.712821581	2.376783278	0	50.53423658
DehaBAV1_R0042	0	0	0.067564078	0	0
DehaBAV1_0502	57.68219104	49.37632258	54.72621813	34.34552411	0
DehaBAV1_0363	18.98943418	22.91638402	32.03365854	12.08813237	0
DehaBAV1_0922	95.16133744	55.36670596	24.04330473	69.04118344	50.53423658
DehaBAV1_0442	76.45745866	44.86802365	32.55009007	31.62571838	0
DehaBAV1_0669	42.76192133	36.06640835	36.166035	33.73622282	50.53423658
DehaBAV1_0970	41.11997777	37.56576454	43.62216467	52.57353838	0
DehaBAV1_0610	139.2082581	141.9984732	97.19082287	74.38013263	0
DehaBAV1_0698	1.927498958	1.371018102	1.910123219	0	0
DehaBAV1_1280	5.425552622	3.660543143	1.38793963	0	0
DehaBAV1_0358	58.82441264	61.65029126	36.6950435	50.46303394	0
DehaBAV1_0251	5.996663425	5.59530629	4.415746166	0	0
DehaBAV1_1357	6.139441125	5.015278538	3.494466596	7.449453634	0
DehaBAV1_0404	23.20137635	21.01565609	29.88993708	62.83376691	151.6027097
DehaBAV1_0312	30.19748367	23.20557735	13.73222759	15.50820855	0
DehaBAV1_0641	16.84776867	18.82362287	26.6657268	18.5781495	50.53423658
DehaBAV1_1024	6.567774227	7.395014597	6.368815941	0	0
DehaBAV1_0091	0.642499653	2.86623133	4.514216252	0	0
DehaBAV1_1011	39.33525651	86.95253561	33.34252997	25.67746791	0
DehaBAV1_0372	4.640275269	5.167505255	4.231382967	11.47883109	0
DehaBAV1_0557	23.05859864	28.40005183	16.42850223	48.63513009	0
DehaBAV1_0189	0.142777701	0.185758435	0.558841659	0	0
DehaBAV1_0952	54.96941473	440.6524344	25.75648777	146.955796	0
DehaBAV1_1117	0.07138885	0.466201151	5.090850521	0	0
DehaBAV1_1227	6.496385377	6.646820491	5.011245894	7.099318409	0
DehaBAV1_1350	23.34415405	24.89496316	31.14274855	11.12869587	0
DehaBAV1_0585	6.781940778	5.798194958	8.702116237	0	0
DehaBAV1_0571	50.97163911	55.29116826	81.0467632	63.44306819	0
DehaBAV1_0064	0.571110802	2.546114615	25.02693274	14.19863682	0
DehaBAV1_0819	1.356388156	2.129959295	1.430886186	11.12869587	0
DehaBAV1_1081	58.25330184	63.11099412	51.30453125	72.20209356	0
DehaBAV1_0079	9.066383987	7.050511908	5.533429484	0	0
DehaBAV1_0620	207.8129432	46.15202768	43.70069645	134.7532599	0
DehaBAV1_0628	45.18914224	39.80788045	47.12131048	72.20209356	0
DehaBAV1_0716	16.63360212	15.15909104	16.87000834	11.47883109	0
DehaBAV1_1015	26.84220771	20.78440222	18.33862544	21.64809045	0
DehaBAV1_1113	14.20638121	25.39960181	215.1707584	21.99822568	50.53423658
DehaBAV1_0410	15.84832477	12.39377287	3.758434421	0	0
DehaBAV1_0126	16.34804672	14.11984483	24.44922562	0	0
DehaBAV1_0592	5.711108024	6.986073374	10.0533978	0	0
DehaBAV1_0390	9.137772838	7.108590024	6.00637803	0	0
DehaBAV1_0105	0.214166551	0.148581101	0.270256312	4.029377458	0
DehaBAV1_1299	4.92583067	6.48409701	23.53423454	0	0
DehaBAV1_0387	7.781384682	8.265853591	8.13123403	4.029377458	0
DehaBAV1_0810	20.48860003	19.19820758	7.338794129	30.05698059	0
DehaBAV1_1049	8.923606287	7.006171579	8.978661036	7.099318409	0
DehaBAV1_0417	1.927498958	1.991782211	2.55485799	0	50.53423658
DehaBAV1_0897	0.499721952	0.638474971	0.872044527	0	0
DehaBAV1_1295	7.35305158	16.49165793	19.54112902	11.12869587	50.53423658
DehaBAV1_0276	0.142777701	0.246217742	0.067564078	0	0
DehaBAV1_0009	52.32802727	45.24480925	43.73267531	45.56518914	0
DehaBAV1_0101	1.213610455	1.395814822	3.721776351	11.47883109	0
DehaBAV1_0872	15.41999166	12.92519856	11.7545403	11.47883109	0
DehaBAV1_1363	18.27554568	23.05072807	49.36871766	11.12869587	50.53423658
DehaBAV1_0402	7.852773532	5.359784532	2.616133582	0	0
DehaBAV1_0864	64.46413182	58.05196442	59.18905364	18.22801428	50.53423658
DehaBAV1_0909	10.42277214	10.13495542	15.95501725	14.19863682	0
DehaBAV1_0980	6.853329628	8.352470096	15.6355259	0	0
DehaBAV1_1166	46.54553039	42.77561649	84.16996989	30.05698059	0
DehaBAV1_1233	28.91248437	31.09347982	23.12202516	8.058754915	0
DehaBAV1_0680	103.3710552	94.91709113	64.48995773	61.07339769	0
DehaBAV1_0306	54.11274852	55.08331133	66.27070486	60.37312724	50.53423658
DehaBAV1_0747	53.32747117	30.87672513	12.5469802	26.02760313	101.0684732
DehaBAV1_0175	65.82051997	83.19675025	55.13789109	48.02582881	151.6027097
DehaBAV1_R0050	0	0.036766588	0	14.19863682	0
DehaBAV1_1150	12.2074934	9.528214915	9.340562522	7.099318409	0
DehaBAV1_0511	19.91748923	15.241478	11.6382776	25.67746791	101.0684732
DehaBAV1_1252	1.284999305	1.705152265	1.793324098	0	0
DehaBAV_RF0052	1.641943557	1.839025968	1.768706576	0	0
DehaBAV1_0063	0.285555401	1.358149605	34.29993118	22.60752696	0
DehaBAV1_0549	16.13388017	13.26330249	8.714693211	16.11750983	50.53423658
DehaBAV1_0040	0.999443904	1.610390849	6.239439846	0	0
DehaBAV1_0420	16.49082442	12.94768507	12.42389259	30.05698059	0
DehaBAV1_1219	6.639163077	6.785325032	12.96386879	18.92828473	0
DehaBAV1_0305	10.56554984	10.95550157	12.38723452	7.449453634	0
DehaBAV1_0488	232.3707077	179.3466748	80.43347086	170.3408211	50.53423658
DehaBAV1_0140	0.999443904	2.682603763	3.015765988	0	0
DehaBAV1_1132	0	0.16288721	5.489946502	0	0
DehaBAV1_0356	42.97608788	53.47574842	33.96786286	37.76560028	0
DehaBAV1_0844	0	0	0.067564078	0	0
DehaBAV1_0916	110.0102183	151.1204542	222.2256464	1344.826745	202.1369463
DehaBAV1_1044	56.32580288	35.861889	33.14037416	24.17626475	0
DehaBAV1_0691	0.142777701	0.475177014	15.81252776	0	0
DehaBAV1_1181	21.63082164	20.93791228	30.22775747	0	0
DehaBAV1_R0029	0.142777701	0.132965617	0.067564078	0	0
DehaBAV1_0422	2.926942862	3.754611304	9.739658503	11.12869587	0
DehaBAV1_0990	0.142777701	0.029921593	0.24563879	0	0
DehaBAV1_0467	56.82552483	41.34489717	27.83893364	32.77678632	0
DehaBAV1_1332	0.07138885	1.779917681	0.945897092	0	0
DehaBAV1_0179	5.996663425	4.341063846	9.51917366	4.029377458	0
DehaBAV1_1039	4.140553317	5.324378422	7.30213606	0	0
DehaBAV1_0242	5.853885724	4.444605209	6.258305307	0	50.53423658
DehaBAV1_0131	4.997219521	6.20741869	4.519968314	0	101.0684732
DehaBAV1_0205	0.713888503	1.356917366	11.98867496	18.92828473	0
DehaBAV1_1316	0.285555401	0.645114592	0.558841659	0	0
DehaBAV1_0871	5.425552622	10.07102984	56.95368701	26.98703964	0
DehaBAV1_0180	9.63749479	6.894424743	15.77172691	11.12869587	0
DehaBAV1_1193	82.88245519	73.96979509	64.88905371	27.2462057	50.53423658
DehaBAV1_0883	144.8479772	114.8575644	56.18854675	100.9495024	0
DehaBAV1_1046	1.142221605	0.84415227	0.448331024	0	0
DehaBAV1_1308	8.994995137	8.460761077	23.01151452	4.029377458	0
DehaBAV1_0533	45.97441959	45.28883727	12.0860722	68.1727161	0
DehaBAV1_1100	6.639163077	4.485136193	4.028690733	7.449453634	0
DehaBAV1_0258	279.9870709	505.742803	197.8389178	306.0191105	0
DehaBAV1_1064	11.13666065	17.32291567	35.55849472	14.19863682	0
DehaBAV1_1094	6.068052275	4.732509039	4.096254811	4.029377458	0
DehaBAV1_1140	4.069164467	4.977648812	3.027806536	0	0
DehaBAV1_0224	217.1648826	380.4044439	33.35296124	218.5679744	202.1369463
DehaBAV1_0429	25.62859726	22.98432005	13.86106726	11.12869587	50.53423658
DehaBAV1_0794	1.427777006	2.050726769	2.996900528	7.449453634	0
DehaBAV1_1242	17.56165717	17.3166002	9.55583173	4.029377458	0
DehaBAV1_0117	0.07138885	0.206704166	0.135128156	0	0
DehaBAV1_0778	52.25663842	21.63583957	4.213053932	29.35671014	0
DehaBAV1_0022	0.214166551	0.348851019	2.59151606	0	0
DehaBAV1_1286	7.495829281	5.154585656	2.149473522	26.28676919	0
DehaBAV1_1377	58.32469069	56.81359113	54.95981638	38.11573551	0
DehaBAV1_0028	12.9213819	11.17253262	15.21863731	12.08813237	0
DehaBAV1_1068	19.77471153	16.95315111	6.915617052	28.2056422	0
DehaBAV1_0245	6.853329628	3.752156283	2.088197931	0	0
DehaBAV1_1033	18.98943418	12.31401697	8.849821367	0	0
DehaBAV1_0260	15.77693591	13.22002452	15.95501725	0	0
DehaBAV1_1264	3.283887114	2.995663957	4.458692722	0	0
DehaBAV1_1205	15.84832477	15.43629889	22.75905082	7.099318409	0
DehaBAV1_0332	12.0647157	33.49060966	25.05783875	61.33256375	50.53423658
DehaBAV1_0600	28.98387322	33.82682597	67.76969155	47.32555836	50.53423658
DehaBAV1_0728	4.283331018	4.359349182	6.706636331	0	0
DehaBAV1_0789	3.283887114	3.951640199	4.974587825	4.029377458	0
DehaBAV1_0345	4.497497569	8.281966416	18.06100779	4.029377458	0
DehaBAV1_1374	21.13109969	17.95209774	7.112020799	4.029377458	0
DehaBAV1_0035	20.34582233	19.03653084	17.3675744	11.12869587	0
DehaBAV1_1057	21.91637704	26.89737037	22.8025338	16.11750983	0
DehaBAV1_0463	62.67941056	38.38280231	17.86514047	56.34374978	0
DehaBAV1_1278	10.27999444	26.11388654	5.20189758	28.74740886	0
DehaBAV1_0367	16.91915752	24.33176422	52.03462271	12.08813237	0
DehaBAV1_0072	0.356944251	2.595175224	2.825114302	7.099318409	50.53423658
DehaBAV1_0109	0	0.089354034	0.313202868	0	0
DehaBAV1_0731	9.351939389	10.65079166	14.78234683	11.12869587	0
DehaBAV1_0841	10.77971639	16.72547136	10.9380193	0	0
DehaBAV1_0449	119.7904908	120.0381478	66.75262402	96.98765958	50.53423658
DehaBAV1_0299	0	0	0	0	0
DehaBAV1_0961	26.05693036	25.37174533	7.277518538	11.47883109	50.53423658
DehaBAV1_0215	11.7791603	18.75472669	28.96812108	22.95766218	0
DehaBAV1_0444	108.9393855	43.74241645	44.54398067	36.80616378	50.53423658
DehaBAV1_0486	70.67496179	56.25426255	38.08819876	56.60291584	101.0684732
DehaBAV1_R0003	0.499721952	0.853744253	0.58345918	7.099318409	0
DehaBAV1_0160	9.351939389	8.263562299	7.860977718	11.47883109	0
DehaBAV1_1257	5.996663425	8.575021152	7.412646694	0	0
DehaBAV1_0918	25.1288753	29.69042487	39.599226	34.08635805	0
DehaBAV1_1059	35.05192549	52.18532566	77.01071113	22.25739173	50.53423658
DehaBAV1_1197	2.569998611	3.972585929	24.63197954	4.029377458	0
DehaBAV1_0817	18.63248993	16.22041821	5.459576919	11.47883109	0
DehaBAV_RF0053	4.211942167	5.456558036	7.136101895	7.449453634	50.53423658
DehaBAV1_0659	101.4435563	94.50883751	38.90525619	83.9400907	0
DehaBAV1_0347	53.61302657	45.62757435	50.4078692	26.63690442	50.53423658
DehaBAV1_0471	100.0157793	64.05303813	41.35067639	56.60291584	0
DehaBAV1_0071	2.42722091	17.44963869	19.43797973	36.80616378	0
DehaBAV1_1026	33.83831504	33.02415442	52.73595386	11.47883109	0
DehaBAV1_0905	3.498053664	1.934069892	1.209864917	0	0
DehaBAV1_0018	6.282218826	8.336402221	14.56078914	18.92828473	0
DehaBAV1_0142	1.927498958	2.909560405	4.495887217	11.12869587	0
DehaBAV1_0508	18.20415682	25.19408304	34.37324732	47.32555836	0
DehaBAV1_0742	31.41109413	30.99068281	59.19641498	22.25739173	50.53423658
DehaBAV1_1196	5.639719173	5.776555972	12.91517017	4.029377458	0
DehaBAV1_1099	23.20137635	25.81458356	34.85248436	16.11750983	0
DehaBAV1_0589	11.6363826	10.93037739	9.875323085	21.29795523	0
DehaBAV1_0893	5.639719173	5.86103215	10.25033797	11.12869587	50.53423658
DehaBAV1_0195	0.642499653	1.082908898	7.584969345	12.08813237	0
DehaBAV1_1003	27.77026276	23.32728196	21.89383121	29.70684537	0
DehaBAV1_0439	68.24774088	35.53664126	29.40548441	18.22801428	0
DehaBAV1_0805	18.98943418	20.85924807	16.16399797	4.029377458	0
DehaBAV1_1009	37.83609066	81.78591999	44.34182486	26.02760313	0
DehaBAV1_0181	6.139441125	5.825205835	14.10670605	7.099318409	0
DehaBAV1_0915	25.20026415	31.97099011	108.0476283	21.99822568	0
DehaBAV1_R0009	0	0	0.067564078	7.099318409	0
DehaBAV1_1106	5.925274574	9.125374328	17.5210316	11.12869587	0
DehaBAV1_0834	4.354719868	9.798019359	7.007262226	7.449453634	0
DehaBAV1_1337	5.068608371	4.656511384	8.0757105	0	0
DehaBAV1_0509	20.84554429	21.69288466	18.06836913	38.11573551	0
DehaBAV1_0421	32.91025999	31.10963429	41.01753521	59.76382596	50.53423658
DehaBAV1_1303	18.70387878	20.13829955	23.04870902	14.54877204	0
DehaBAV1_1213	12.56443765	10.24378208	9.408663026	8.058754915	0
DehaBAV1_1007	41.54831087	38.2985618	18.34437751	77.03240373	0
DehaBAV1_1170	138.2088142	148.2033569	371.4095155	100.249232	50.53423658
DehaBAV1_0755	49.5438621	41.83331178	13.43789018	31.62571838	0
DehaBAV1_0495	33.98109274	32.47737587	37.35289167	18.5781495	0
DehaBAV1_1127	3.783609066	4.751205123	7.26547799	7.099318409	0
DehaBAV1_0758	19.06082303	16.5211011	5.361643258	11.12869587	0
DehaBAV1_0963	14.42054776	9.794547436	3.291774362	4.029377458	0
DehaBAV1_0573	2.42722091	3.705371354	1.148589326	0	0
DehaBAV1_0397	17.77582372	17.11407118	34.97557196	63.18390213	0
DehaBAV1_1245	1.356388156	1.769298832	5.054192451	0	0
DehaBAV1_0030	63.46468791	62.65336524	55.71506178	39.68447329	0
DehaBAV1_0566	29.62637287	24.35137881	8.002394361	11.12869587	50.53423658
DehaBAV1_0726	4.069164467	3.036615146	4.5262568	21.99822568	0
DehaBAV1_0481	95.30411514	65.58189	41.68796036	109.7085278	50.53423658
DehaBAV1_0818	7.21027388	7.156267428	3.476137561	11.12869587	0
DehaBAV1_0385	26.55665231	23.8841664	28.34854026	37.85656945	0
DehaBAV1_0103	0.285555401	0.02971622	0	7.449453634	0
DehaBAV1_0749	108.725219	77.62249144	45.02214485	103.2185107	0
DehaBAV1_0415	50.47191716	38.9335705	26.79510289	48.28499487	50.53423658
DehaBAV1_0197	0.285555401	0.156042215	1.707430985	0	0
DehaBAV1_0225	128.0715974	262.3248552	29.18339029	92.79977833	0
DehaBAV1_0562	15.13443626	23.4519399	31.12334667	63.18390213	0
DehaBAV1_R0028	2.141665509	5.743050286	2.333836722	55.03417805	50.53423658
DehaBAV1_0017	21.05971084	73.6135477	476.6338779	41.44484251	101.0684732
DehaBAV1_0209	2.712776311	25.17334076	35.68265518	11.12869587	50.53423658
DehaBAV1_0490	187.5385097	144.852278	41.93359915	90.68927389	50.53423658
DehaBAV1_0766	28.34137357	28.78143608	60.49217301	21.99822568	0
DehaBAV1_1253	15.63415821	12.83420154	13.5787704	12.08813237	0
DehaBAV1_1223	56.39719173	45.84571271	52.86479353	46.17449042	0
DehaBAV1_1014	28.19859587	18.23448487	14.56761405	8.058754915	0
DehaBAV1_0875	32.19637148	32.02178742	49.30222643	4.029377458	0
DehaBAV1_0298	0	0.059843187	0.067564078	0	0
DehaBAV1_0615	18.56110108	21.28195642	9.267246383	26.02760313	50.53423658
DehaBAV1_0436	8.352495484	11.3254171	7.105732312	7.099318409	0
DehaBAV1_0329	37.3363687	140.5751106	254.6165853	45.21505392	50.53423658
DehaBAV1_1365	35.26609205	23.23275811	55.30860446	52.31437232	0
DehaBAV1_0202	0.214166551	0.697702038	4.778184078	7.449453634	50.53423658
DehaBAV1_0700	26.41387461	19.03940607	11.2145641	42.40427902	0
DehaBAV1_0709	26.98498541	34.33116461	26.56779314	22.60752696	0
DehaBAV1_R0032	0	0	0	0	0
DehaBAV1_0256	81.59745589	147.2597915	61.13637136	52.40534149	0
DehaBAV1_0706	21.77359934	19.15573549	38.4139786	18.22801428	50.53423658
DehaBAV1_0737	3.426664814	5.556485969	1.946781288	12.08813237	0
DehaBAV1_0268	30.19748367	40.37874497	21.77128002	26.28676919	50.53423658
DehaBAV1_0311	46.75969694	32.09951847	14.81954133	63.53403736	0
DehaBAV1_1246	1.927498958	2.740428708	2.259984157	8.058754915	0
DehaBAV1_1168	173.8318505	206.7059344	486.2548888	182.1022528	101.0684732
DehaBAV1_0068	1.713332407	4.822437548	33.69975225	14.19863682	0
DehaBAV1_0684	2.141665509	3.049980982	3.07704158	0	0
DehaBAV1_0696	25.55720841	22.9027972	10.69238051	22.60752696	0
DehaBAV1_0384	11.921938	10.82937149	9.863282537	8.058754915	0
DehaBAV1_0128	15.63415821	11.33800309	11.53980751	15.50820855	50.53423658
DehaBAV1_0200	2.284443209	2.065032879	16.47827369	0	0
DehaBAV1_0024	2.784165161	2.784826293	1.277428995	0	0
DehaBAV1_R0037	0.142777701	0.268062101	0.24563879	7.449453634	0
DehaBAV1_0879	8.352495484	7.154743221	6.995221678	0	0
DehaBAV1_0971	6.424996526	9.41361177	13.95324886	0	0
DehaBAV1_0474	27.98442932	22.0716918	14.80696435	31.0164171	0
DehaBAV1_1188	46.47414154	50.80727373	87.57371554	34.69565933	0
DehaBAV1_0313	64.60690952	45.65056436	35.15311025	64.49347387	0
DehaBAV1_0168	29.91192827	25.30093926	8.849821367	60.46409641	50.53423658
DehaBAV1_0580	16.77637982	13.81852406	14.65979565	7.449453634	50.53423658
DehaBAV1_1224	17.91860142	15.55138376	17.11618355	7.099318409	0
DehaBAV1_0657	33.90970389	28.91725897	12.35686494	11.47883109	0
DehaBAV1_1313	17.06193522	21.9980578	15.76490199	4.029377458	0
DehaBAV1_1301	0	0	0	0	0
DehaBAV1_1149	1.284999305	1.30309768	0.804480449	14.89890727	0
DehaBAV1_0135	2.784165161	3.369850681	4.814842147	11.47883109	0
DehaBAV1_0653	47.5449743	38.1578005	33.42735023	48.54416092	0
DehaBAV1_1056	1.284999305	2.454748493	11.15850414	0	0
DehaBAV1_0190	14.92026971	11.60086318	20.92331659	12.08813237	0
DehaBAV1_0895	205.5998888	243.6565495	646.9820232	242.47538	252.6711829
DehaBAV1_0850	10.20860559	16.34307683	14.22350517	11.12869587	0
DehaBAV1_0155	3.355275964	2.855570837	14.24704984	7.099318409	0
DehaBAV1_0816	40.04914501	40.66138669	18.61409739	16.11750983	0
DehaBAV1_0272	0	0	0	0	0
DehaBAV1_0425	42.97608788	30.86855184	24.64509294	49.5945666	50.53423658
DehaBAV1_0646	23.9866537	18.92070161	14.51209052	0	0
DehaBAV1_1137	63.32191021	52.01078094	19.30914006	53.01464277	0
DehaBAV1_1058	6.853329628	9.648809375	9.942887163	0	0
DehaBAV1_0003	8.495273185	8.897441923	22.84601678	19.53758601	0
DehaBAV1_R0005	0	0	0	0	0
DehaBAV1_1000	10.13721674	10.00138315	4.845748156	15.15807332	0
DehaBAV1_1089	60.6091339	42.80389087	8.586389967	12.08813237	50.53423658
DehaBAV1_0279	0.285555401	0.339669783	0.626405737	0	0
DehaBAV1_1214	3043.378077	4544.993078	7831.472401	3649.686247	1313.890151
DehaBAV1_0348	105.2271653	84.06441875	58.41079999	105.497212	0
DehaBAV1_0966	18.13276797	15.07915581	14.48172094	4.029377458	0
DehaBAV1_1077	127.786042	108.4186203	63.59383211	66.16287392	0
DehaBAV1_0237	20.41721118	41.5395491	190.3754268	14.54877204	50.53423658
DehaBAV1_1037	24.05804255	30.77966815	41.31294547	11.47883109	0
DehaBAV1_0325	0.356944251	0.348851019	0.202692234	0	0
DehaBAV1_0108	0.285555401	0.376436371	1.228193952	0	0
DehaBAV1_0866	7.495829281	6.465811673	3.298062848	0	50.53423658
DehaBAV1_0929	118.5768803	88.50360336	41.49730867	82.63051897	0
DehaBAV1_0377	73.2449604	56.27338265	24.67078332	90.07997261	0
DehaBAV1_0399	742.5154319	914.9856162	850.369481	534.690089	353.739656
DehaBAV1_1200	65.46357572	67.37538693	128.7400287	42.14511296	151.6027097
DehaBAV1_0689	19.56054498	18.09633285	29.95121267	21.64809045	0
DehaBAV1_1283	6.996107329	4.110101944	2.020633853	16.11750983	0
DehaBAV1_1186	23.91526485	13.85861827	11.89595694	14.54877204	0
DehaBAV1_1292	40.12053387	29.79006414	21.85717314	22.95766218	0
DehaBAV1_1018	108.5824413	72.26813606	19.5055438	62.74279774	0
DehaBAV1_0407	59.10996804	48.66939151	34.42823443	19.18745078	50.53423658
DehaBAV1_0608	185.1112888	141.1542576	118.9998338	117.9354796	50.53423658
DehaBAV1_0472	30.05470597	24.77516416	22.8397283	62.57460085	0
DehaBAV1_0983	5.068608371	8.219864123	7.664037546	19.53758601	0
DehaBAV1_0094	10.70832754	5.740524283	5.355354771	4.029377458	0
DehaBAV1_0338	0.713888503	4.161713626	1.38793963	0	50.53423658
DehaBAV1_0159	63.96440986	58.15544852	39.47038633	29.70684537	0
DehaBAV1_1220	61.39441125	65.04915683	88.77675555	52.75547672	50.53423658
DehaBAV1_1340	40.69164467	44.99631018	19.65271251	23.21682824	0
DehaBAV1_0931	4.997219521	6.670256733	2.192420079	7.099318409	0
DehaBAV1_0344	0.499721952	0.571786789	1.744089054	0	0
DehaBAV1_1333	11.13666065	13.00249613	24.2161638	18.92828473	50.53423658
DehaBAV1_0086	0.142777701	0.459356157	0.786151414	0	0
DehaBAV1_R0046	0.142777701	0	0.067564078	0	0
DehaBAV1_1379	2.42722091	5.092056042	5.477905954	0	0
DehaBAV1_0776	15.06304741	14.31531403	19.33897321	19.18745078	50.53423658
DehaBAV1_1042	5.354163772	5.665476359	2.426018321	11.12869587	0
DehaBAV1_0524	2.284443209	2.713629358	5.33073725	14.54877204	50.53423658
DehaBAV1_1017	109.7960518	113.7137973	82.00684654	79.65154719	0
DehaBAV1_0796	5.211386071	9.149323523	40.55716364	11.47883109	0
DehaBAV1_1179	42.11942167	35.97581166	22.47782681	26.98703964	50.53423658
DehaBAV1_0211	0.214166551	0.882561845	1.123971804	0	50.53423658
DehaBAV1_1364	11.7791603	7.854704365	21.14433786	0	0
DehaBAV1_1138	37.3363687	38.11119491	14.34659278	23.21682824	0
DehaBAV1_0824	8.566662035	8.841391507	2.868060859	0	0
DehaBAV1_1260	65.74913112	110.3956586	528.4783854	75.62216973	50.53423658
DehaBAV1_0884	154.3426943	119.2443981	47.31410787	150.8032351	0
DehaBAV1_0054	16.63360212	20.61189084	141.7414798	11.47883109	0
DehaBAV1_0351	21.48804394	18.62227168	11.35544431	14.54877204	50.53423658
DehaBAV1_1082	2.926942862	5.150872363	14.81271641	0	0
DehaBAV1_0483	45.40330879	43.59554036	32.87479706	43.99645135	50.53423658
DehaBAV1_0842	3.212498263	7.999617122	4.464981209	0	0
DehaBAV1_0413	67.74801893	62.26669473	31.41407772	41.79497774	0
DehaBAV1_0938	9.70888364	143.8062489	795.7890615	94.20031923	151.6027097
DehaBAV1_0924	17.27610177	12.01999689	10.08430381	18.22801428	0
DehaBAV1_0370	198.1754484	215.355705	330.8036532	209.9343252	202.1369463
DehaBAV1_0829	6.068052275	4.822122854	1.056407726	7.099318409	0
DehaBAV1_0493	40.47747812	36.35135367	30.84841115	29.44767931	0
DehaBAV1_0854	47.90191855	33.86359022	12.53493965	52.92367361	50.53423658
DehaBAV1_1327	26.91359656	30.93581353	66.01302552	4.029377458	50.53423658
DehaBAV1_0048	15.13443626	12.14165986	9.654301816	0	0
DehaBAV1_0062	0.713888503	1.563990634	11.3376517	4.029377458	0
DehaBAV1_1262	5.139997221	7.06637441	11.41043142	4.029377458	0
DehaBAV1_R0022	0.142777701	1.815282147	2.014345366	211.1322622	0
DehaBAV1_1234	10.77971639	12.90977899	25.26574662	4.029377458	0
DehaBAV1_0078	0.928055054	1.737897981	1.277428995	0	0
DehaBAV1_0637	56.04024748	46.13281777	19.75747108	61.8743304	50.53423658
DehaBAV1_0786	24.77193105	9.400188677	3.531124665	7.449453634	0
DehaBAV1_0926	9.994439041	8.690516771	3.205881249	4.029377458	0
DehaBAV1_0956	33.98109274	27.53203315	8.370584334	14.89890727	0
DehaBAV1_0230	5.711108024	11.30912112	9.132118227	8.058754915	0
DehaBAV1_0287	0	0	0	0	0
DehaBAV1_0713	69.74690674	59.65310782	18.67015735	77.73267418	0
DehaBAV1_0556	58.68163494	63.7354947	54.93305315	64.4025047	101.0684732
DehaBAV1_0976	0	0	0	0	0
DehaBAV1_0525	73.8160712	80.10752067	94.86542033	83.58995548	0
DehaBAV1_1325	0	0	0	0	0
DehaBAV1_0632	31.76803838	49.77357924	76.14602794	50.81316916	0
DehaBAV1_0783	15.13443626	5.531852978	0.067564078	45.47421997	0
DehaBAV1_R0049	0.07138885	0.119275627	0.313202868	7.099318409	0
DehaBAV1_0621	97.0888364	18.33105915	14.56761405	39.07517201	50.53423658
DehaBAV1_0005	49.18691785	46.94433314	27.7896986	15.15807332	0
DehaBAV1_0567	17.84721257	17.34019071	8.266362186	4.029377458	50.53423658
DehaBAV1_1110	239.9379258	300.1571815	61.58470238	172.8014607	50.53423658
DehaBAV1_0193	0.713888503	0.734468626	4.077925776	0	50.53423658
DehaBAV1_1053	24.1294314	17.75778034	10.44045323	21.99822568	0
DehaBAV1_0037	16.70499097	16.75132479	15.55592127	0	0
DehaBAV1_0781	16.70499097	6.006491007	1.252811474	15.15807332	0
DehaBAV1_0011	1.570554706	1.488445369	1.928452254	0	0
DehaBAV1_0768	11.42221605	15.93782902	43.98981822	7.449453634	0
DehaBAV1_0773	6.353607676	10.49947303	15.0583552	7.449453634	0
DehaBAV1_0060	0.285555401	0.468332019	1.320375552	7.099318409	0
DehaBAV1_0045	6.710551928	4.859117543	5.342777798	8.058754915	0
DehaBAV1_0309	10.27999444	7.314517646	3.365626926	19.18745078	0
DehaBAV1_R0047	4302.320452	11767.54024	40599.32524	49167.72094	3992.204689
DehaBAV1_0723	9.851661341	9.81327901	4.974587825	0	0
DehaBAV1_0975	0	0.178297321	0.178074712	0	0
DehaBAV1_1075	79.66995693	72.81130778	48.40663724	33.73622282	0
DehaBAV1_0603	9.994439041	5.135128641	4.194724897	4.029377458	50.53423658
DehaBAV1_0792	11.13666065	11.64248159	19.00168925	7.449453634	0
DehaBAV1_1255	73.5305158	82.34104594	199.207992	60.11396118	0
DehaBAV1_0959	49.04414015	47.17317745	7.167007904	34.69565933	0
DehaBAV1_0826	30.83998333	34.4581109	16.67989308	18.5781495	0
DehaBAV1_0172	0.285555401	0.748363988	8.266362186	0	0
DehaBAV1_0067	0.214166551	1.405817551	12.95865315	0	0
DehaBAV1_0296	2.855554012	2.21361398	18.07987325	0	0
DehaBAV1_0222	42.19081052	50.87600622	102.9233382	72.29306272	50.53423658
DehaBAV1_0427	70.96051719	61.00199194	44.19879894	68.78201738	0
DehaBAV1_0433	14.49193661	12.658231	12.70672587	26.63690442	0
DehaBAV1_0394	9.423328239	10.20635773	10.43416474	11.47883109	0
DehaBAV1_1335	21.27387739	18.49316651	51.77119131	18.22801428	0
DehaBAV1_1160	0.356944251	0.369386003	0.135128156	0	0
DehaBAV1_1029	26.77081886	20.3470125	12.86647155	21.64809045	0
DehaBAV1_0183	27.19915196	24.89811759	89.79865091	19.18745078	0
DehaBAV1_1104	41.40553317	38.15152382	30.97096233	26.98703964	0
DehaBAV1_1311	8.495273185	5.356969867	10.32365411	0	0
DehaBAV1_1190	26.62804116	36.86848505	31.84822249	15.15807332	0
DehaBAV1_0694	32.69609343	34.13109865	75.55052821	63.88417258	101.0684732
DehaBAV1_0763	34.69498124	27.56209625	16.96847842	18.92828473	50.53423658
DehaBAV1_0106	6.639163077	6.234474516	12.28247595	0	0
DehaBAV1_0881	55.75469208	64.9354878	37.13079755	40.83554123	0
DehaBAV1_1163	143.6343668	128.2693216	251.9462402	71.76098916	0
DehaBAV1_R0030	0.07138885	0.029921593	0.067564078	7.449453634	0
DehaBAV1_0736	116.8635479	116.2934209	91.6291695	98.22969669	50.53423658
DehaBAV1_0740	27.27054081	35.53998876	46.10838573	40.83554123	50.53423658
DehaBAV1_0395	18.98943418	37.43692058	112.8074833	71.85195833	0
DehaBAV1_0598	21.05971084	27.11598715	26.84594721	75.7131389	101.0684732
DehaBAV1_0143	0.356944251	2.009698445	3.150894144	0	0
DehaBAV1_1147	8.066940083	7.722765615	6.49765561	18.5781495	0
DehaBAV1_0904	5.425552622	9.701381209	21.22447891	4.029377458	0
DehaBAV1_1050	6.210829976	3.916096392	6.847516548	7.449453634	0
DehaBAV1_0212	7.638606981	41.10363387	52.0692837	80.10234468	0
DehaBAV1_1116	16.77637982	35.87593813	54.72460886	11.12869587	0
DehaBAV1_0535	302.1890033	249.0580083	39.91242887	186.976663	0
DehaBAV1_0522	75.88634786	107.9764857	158.8400194	76.8407723	0
DehaBAV1_0059	1.856110108	1.453937887	2.89267838	7.449453634	0
DehaBAV1_0933	47.75914085	38.40720816	33.86417713	38.11573551	0
DehaBAV1_0651	44.68942028	38.38971543	20.40220585	15.15807332	50.53423658
DehaBAV1_0702	8.566662035	5.598865313	2.468964878	15.50820855	0
DehaBAV1_0814	15.70554706	14.07443599	2.960242458	8.058754915	0
DehaBAV1_0992	0.142777701	0.059843187	0.067564078	0	0
DehaBAV1_0026	32.55331573	35.1358033	39.69823251	19.53758601	0
DehaBAV1_0560	17.91860142	24.29410942	21.90533533	25.67746791	0
DehaBAV1_1318	5.568330323	4.119488553	3.089082128	8.058754915	0
DehaBAV1_1176	28.05581817	24.87588852	20.89869907	33.3860876	0
DehaBAV1_0839	4.85444182	8.119184716	27.64774553	0	0
DehaBAV1_0319	57.96774644	79.12286692	111.5363428	34.08635805	0
DehaBAV1_0686	33.83831504	26.50844172	15.59311577	35.04579456	0
DehaBAV1_0973	18.84665648	12.90397032	23.90242451	20.14688729	0
DehaBAV1_0744	155.7704713	107.6880168	72.65156135	113.38777	101.0684732
DehaBAV1_0170	1.142221605	1.683385041	0.939608605	0	0
DehaBAV1_1005	24.91470875	21.73769299	19.38820826	21.99822568	50.53423658
DehaBAV1_0711	6.781940778	5.174436843	1.903834732	0	0
DehaBAV1_0545	41.76247742	34.12566431	38.70310038	26.98703964	0
DehaBAV1_1216	8.923606287	8.338976021	6.067653621	15.50820855	0
DehaBAV1_1070	9.566105939	6.907138969	2.358454243	12.08813237	0
DehaBAV1_0213	13.84943696	55.73542561	114.7743515	44.25561741	50.53423658
DehaBAV1_0540	10.06582789	6.732112009	1.369610595	16.11750983	0
DehaBAV1_0271	0.428333102	1.326790399	2.751261738	0	0
DehaBAV1_0719	121.7179898	115.0338255	212.8564722	105.2380459	50.53423658
DehaBAV1_1315	0	0	0.067564078	0	0
DehaBAV1_1172	246.1487558	449.8606095	1387.576358	413.4255024	505.3423658
DehaBAV1_1359	4.211942167	2.877492332	2.131144488	0	0
DehaBAV1_1135	6.139441125	12.04387841	68.17239389	14.54877204	0
DehaBAV1_0582	5.639719173	5.764422375	7.566103885	19.18745078	0
DehaBAV1_1290	6.781940778	8.150521701	12.20287132	4.029377458	0
DehaBAV1_0301	0	0	0	0	0
DehaBAV1_0188	0.142777701	0.372338364	1.498450264	0	0
DehaBAV1_R0015	0.142777701	0	0	0	0
DehaBAV1_0836	4.568886419	7.721683835	20.68289344	4.029377458	0
DehaBAV1_0807	11.3508272	8.987855009	7.160719417	0	0
DehaBAV1_0354	13.49249271	10.62677479	4.329853053	4.029377458	0
DehaBAV1_0096	5.639719173	5.308676344	7.185336938	11.47883109	0
DehaBAV1_0605	24.2722091	10.03412556	12.79261899	8.058754915	0
DehaBAV1_R0012	1.570554706	3.325571875	1.302046517	35.84672727	0
DehaBAV1_1084	7.35305158	6.312516446	3.899851064	11.47883109	0
DehaBAV1_1347	36.6224802	44.29559756	38.45692516	11.47883109	50.53423658
DehaBAV1_0153	0.999443904	1.946450507	3.476137561	0	0
DehaBAV1_0150	1.570554706	5.534204831	7.03870466	0	0
DehaBAV1_0891	16.41943557	16.78847706	14.71531918	11.12869587	0
DehaBAV1_R0011	0.856666204	0.570759923	0.202692234	0	0
DehaBAV1_1247	1.641943557	2.212587113	3.562030674	0	0
DehaBAV1_0235	9.851661341	13.53300758	20.07588959	20.14688729	0
DehaBAV1_0506	27.48470736	25.80438257	36.02515478	58.104119	50.53423658
DehaBAV1_0955	11.56499375	7.768995947	4.814842147	7.449453634	0
DehaBAV1_0001	78.81329072	60.04194891	67.79070271	49.5945666	0
DehaBAV1_0527	61.25163355	66.46123493	29.47251206	45.8243552	101.0684732
DehaBAV1_R0006	3289.526833	10043.78821	28705.6947	1429330.924	60438.94694
DehaBAV1_0042	72.17412765	57.88900815	40.57027704	37.50643423	0
DehaBAV1_0958	30.26887252	25.63442842	4.028690733	0	0
DehaBAV1_0375	13.13554845	11.22762003	8.554947533	4.029377458	0
DehaBAV1_1236	3177.589115	2274.693391	5489.177314	2533.501402	656.9450755
DehaBAV1_0856	11.99332685	11.31111099	11.29416872	11.12869587	0
DehaBAV1_0121	0.285555401	0.571992162	1.836270654	0	0
DehaBAV1_0254	9.923050191	9.208884201	28.55123249	34.08635805	0
DehaBAV1_0623	41.97664397	14.55365991	8.327637778	33.12692154	0
DehaBAV1_0292	0	0	0	0	0
DehaBAV1_0084	3.426664814	3.273240906	3.35933844	0	0
DehaBAV1_0241	9.351939389	13.10507734	13.70132158	7.099318409	0
DehaBAV1_1329	0.571110802	2.207221376	34.57486671	0	151.6027097
DehaBAV1_0124	2.213054359	2.95431148	6.743294401	7.099318409	0
DehaBAV1_0868	15.49138051	16.30938138	13.36350119	15.50820855	0
DehaBAV1_0677	18.98943418	25.89359795	53.99505382	44.86491869	50.53423658
DehaBAV1_0157	5.068608371	5.60714792	5.085098459	0	0
DehaBAV1_0282	0.214166551	0.119481	0.067564078	0	0
DehaBAV1_0907	7.567218131	6.4315867	4.274329523	8.058754915	0
DehaBAV1_0998	26.34248576	31.65921707	44.7073327	22.25739173	0
DehaBAV1_0366	9.851661341	13.92141381	17.60063622	0	0
DehaBAV1_R0014	0.07138885	0.2960582	0.135128156	0	50.53423658
DehaBAV1_0418	43.11886558	48.27248687	59.24565002	58.104119	0
DehaBAV1_0625	21.77359934	14.61982802	7.689191493	38.11573551	0
DehaBAV1_0554	0.785277353	0.85292276	0.693969815	0	0
DehaBAV1_1267	11.921938	11.95487456	32.42017755	18.22801428	101.0684732
DehaBAV1_0454	112.5088281	79.90393976	43.15604104	46.7837917	0
DehaBAV1_0261	14.27777006	17.50620962	25.43124436	68.08174693	50.53423658
DehaBAV1_1203	34.19525929	39.30780217	46.34305683	35.65509584	0
DehaBAV1_0930	26.77081886	36.83828475	105.9328157	18.22801428	0
DehaBAV1_0943	102.9427221	172.6107319	3139.665454	293.2210145	454.8081292
DehaBAV1_0400	37.193591	32.99695474	18.30771944	47.93485964	50.53423658
DehaBAV1_0360	21.84498819	20.7395106	10.44674172	7.449453634	0
DehaBAV1_1020	47.4021966	50.995456	18.06154422	38.11573551	50.53423658
DehaBAV1_0113	0.428333102	0.534814828	0.515895102	0	0
DehaBAV1_0978	36.6224802	30.24023387	20.48756254	16.11750983	0
DehaBAV1_0336	1.213610455	13.82274319	4.286906497	0	0
DehaBAV1_R0020	0.214166551	0.364055756	0.626405737	21.64809045	0
DehaBAV1_R0013	0	0.059843187	0.178074712	0	0
DehaBAV1_1354	116.9349368	121.3779548	126.9860448	72.20209356	0
DehaBAV1_1040	4.497497569	6.041716815	12.42389259	4.029377458	0
DehaBAV1_1129	7.638606981	5.551900081	6.362527454	0	0
DehaBAV_RF0057	6.924718479	6.426795437	7.805454188	7.449453634	0
DehaBAV1_0831	7.067496179	9.165002873	3.807669464	18.22801428	0
DehaBAV1_0857	23.1299875	19.80190298	19.74435768	40.22623995	0
DehaBAV1_1091	264.2101349	267.0161158	253.4168544	167.5300462	0
DehaBAV1_0530	35.05192549	41.99189465	40.03498005	59.2220593	50.53423658
DehaBAV1_0076	0.285555401	3.70866348	7.038168234	0	0
DehaBAV1_0052	11.27943835	8.955924632	9.027896079	0	0
DehaBAV1_0233	18.70387878	62.33555634	19.50447095	50.74563454	0
DehaBAV1_0491	2.569998611	2.256814816	0.964226127	0	0
DehaBAV1_1368	3.712220215	4.828785203	23.2262473	0	0
DehaBAV_RF0056	46.04580844	41.86157615	56.39952456	27.2462057	0
DehaBAV1_0910	15.27721396	16.01714483	14.57336611	7.099318409	0
DehaBAV1_0942	9.494717089	9.566729999	157.9218098	59.59562907	0
DehaBAV1_0423	8.281106634	34.00103613	159.5399805	42.14511296	101.0684732
DehaBAV1_0284	0	0.305855556	0.313202868	7.449453634	0
DehaBAV1_1238	22.91582094	26.87319404	22.08448289	15.15807332	0
DehaBAV1_0293	0	0	0	0	0
DehaBAV1_0576	30.12609482	22.2400801	9.685207824	12.08813237	0
DehaBAV1_0923	166.4787989	115.1627163	55.1316026	134.9448913	50.53423658
DehaBAV1_0873	8.709439736	9.357979216	8.579565055	11.12869587	0
DehaBAV1_0097	3.212498263	2.682475525	3.562030674	4.029377458	0
DehaBAV1_1079	66.03468652	74.69651583	85.51749647	42.14511296	0
DehaBAV1_1065	2.42722091	11.50498119	281.0880865	7.099318409	0
DehaBAV1_1342	63.17913251	52.19440139	54.89117945	52.66450755	0
DehaBAV1_0845	4.640275269	4.257126652	6.313292411	7.099318409	0
DehaBAV1_0882	26.05693036	29.26347136	23.13406571	7.099318409	0
DehaBAV1_0206	7.781384682	18.5104439	238.6955439	114.4478688	0
DehaBAV1_0634	53.75580427	50.28984992	30.9835393	33.3860876	0
DehaBAV1_0504	30.48303908	32.46910984	40.65617015	20.14688729	50.53423658
DehaBAV1_0323	16.91915752	17.76570661	49.0073526	7.099318409	0
DehaBAV1_0784	62.60802171	22.94033321	1.910123219	18.5781495	0
DehaBAV1_1274	9.63749479	20.03685402	2.825114302	0	0
DehaBAV1_0165	363.5120257	560.6948022	261.9648284	360.2289213	202.1369463
DehaBAV1_0019	8.209717784	9.885990693	14.40733195	8.058754915	0
DehaBAV1_0569	8.281106634	7.234094526	8.554947533	22.95766218	0
DehaBAV1_1206	28.12720702	22.31333693	14.45656699	18.22801428	0
DehaBAV1_0903	29.84053942	37.80118597	132.7320614	37.50643423	0
DehaBAV1_0167	39.12108996	42.4603994	10.57504496	8.058754915	50.53423658
DehaBAV1_0129	107.7257751	116.6888936	127.2023869	82.37135292	50.53423658
DehaBAV1_0342	4.140553317	4.134035526	7.609050441	4.029377458	0
DehaBAV1_R0024	3.569442515	6.15355736	3.445231552	7.449453634	0
DehaBAV1_1328	0.428333102	0.927277429	12.49720873	0	0
DehaBAV1_0032	16.34804672	12.18747945	6.282922828	0	0
DehaBAV1_0878	63.17913251	62.0741684	80.80166084	42.94604568	50.53423658
DehaBAV1_0901	10.85110524	9.644532027	11.89595694	16.11750983	0
DehaBAV1_0692	183.8262895	170.6433511	52.20172973	184.5394579	50.53423658
DehaBAV1_0663	12.56443765	17.40894824	30.68759262	53.01464277	0
DehaBAV1_0477	36.0513694	46.16841929	38.40769012	35.04579456	0
DehaBAV1_0392	5.925274574	4.296142888	1.302046517	0	0
DehaBAV1_0466	66.03468652	60.65474322	33.10893173	41.53581168	0
DehaBAV1_1025	49.47247325	35.85242145	43.40689546	22.60752696	50.53423658
DehaBAV1_1093	23.05859864	17.67113165	15.94926519	8.058754915	0
DehaBAV1_1241	19.27498958	27.60063122	18.1050272	33.73622282	0
DehaBAV1_0462	26.69943001	19.2699823	13.03772135	4.029377458	0
DehaBAV1_1273	13.27832615	47.00291282	9.610818834	15.50820855	0
DehaBAV1_1367	80.52662313	92.50814657	264.6350248	66.16287392	0
DehaBAV1_1334	48.61580705	51.8748227	126.4108712	7.099318409	50.53423658
DehaBAV1_0485	51.97108301	52.05786825	36.25246453	40.22623995	0
DehaBAV1_1192	173.9032393	182.9743005	145.03233	125.034798	101.0684732
DehaBAV1_1048	16.91915752	15.50703398	7.689191493	18.22801428	0
DehaBAV1_1298	0.571110802	0.594247268	2.266272644	0	0
DehaBAV1_1382	13.0641596	16.22479257	18.41769364	8.058754915	0
DehaBAV1_0774	23.20137635	21.3985267	18.54706974	11.47883109	50.53423658
DehaBAV1_0601	79.52717923	114.3363521	43.20527608	77.29156978	101.0684732
DehaBAV1_0007	43.61858753	46.19067109	35.81671048	24.17626475	50.53423658
DehaBAV1_0762	44.33247603	44.43598976	29.12840319	45.56518914	0
DehaBAV1_1184	17.56165717	19.6166608	38.70885244	15.15807332	0
DehaBAV1_1038	7.638606981	7.269185942	7.148678869	0	0
DehaBAV1_1385	10.70832754	15.69130273	10.48339979	7.099318409	50.53423658
DehaBAV1_0080	7.067496179	6.614598147	5.760739239	0	0
DehaBAV1_0741	10.63693869	11.02133277	20.69600684	11.12869587	50.53423658
DehaBAV1_0431	13.84943696	10.68366561	12.12901875	4.029377458	0
DehaBAV1_0939	5.568330323	12.57822758	111.6364222	14.54877204	0
DehaBAV1_1141	4.711664119	4.95990246	3.26715684	0	0
DehaBAV1_0352	17.63304602	13.92381773	7.050745208	12.08813237	0
DehaBAV1_0401	15.70554706	12.45602943	8.315060804	0	0
DehaBAV1_0586	23.20137635	19.52989714	9.077131122	34.69565933	0
DehaBAV1_0204	2.42722091	4.17859684	30.48129402	26.98703964	50.53423658
DehaBAV1_0886	57.25385794	41.3205623	23.97574065	11.47883109	0
DehaBAV1_0770	12.56443765	10.20870343	15.38413505	18.5781495	0
DehaBAV1_0132	3.783609066	6.26165858	29.54997099	7.449453634	50.53423658
DehaBAV1_0430	37.3363687	34.43764557	28.32338631	75.62216973	0
DehaBAV1_1032	9.923050191	9.515057756	14.68387675	21.99822568	0
DehaBAV1_0655	24.2722091	18.04571351	5.588953014	23.21682824	50.53423658
DehaBAV1_0446	0.713888503	0.467921273	0.669352293	0	0
DehaBAV1_0443	98.87355766	49.42316141	46.30586233	45.47421997	0
DehaBAV1_1072	136.3527041	97.03586655	58.25159074	108.8166259	0
DehaBAV1_0229	17.20471292	48.58122375	83.27369565	22.60752696	0
DehaBAV1_0371	23.843876	29.71165737	11.19623506	33.47705677	0
DehaBAV1_0957	54.46969277	46.46454751	8.487383455	71.50182311	0
DehaBAV1_1122	19.20360073	21.03484951	45.77739026	4.029377458	101.0684732
DehaBAV1_0537	116.6493814	80.95937212	16.28133352	49.85373265	0
DehaBAV1_0389	19.63193383	19.52660405	8.745599219	19.18745078	0
DehaBAV1_0459	21.48804394	15.91192214	8.757639767	11.12869587	0
DehaBAV1_0388	4.426108718	4.283309882	3.746393873	14.19863682	0
DehaBAV1_0627	75.24384821	61.81289683	68.46205209	47.93485964	0
DehaBAV1_1353	14.84888086	16.71351573	16.0723528	7.449453634	0
DehaBAV1_0163	22.55887669	16.14800561	9.3290584	12.08813237	0
DehaBAV1_0987	19.48915613	24.89245373	11.85876244	18.5781495	0
DehaBAV1_0590	13.56388156	22.28291184	26.61073969	26.98703964	0
DehaBAV1_1279	9.923050191	11.05309657	4.170107376	14.54877204	0
DehaBAV1_0838	1.784721257	5.404441898	59.50118366	7.449453634	0
DehaBAV1_0221	17.70443487	15.92446649	37.27114134	11.12869587	0
DehaBAV1_0515	29.19803977	22.40064668	19.29656308	26.28676919	0
DehaBAV1_0802	18.20415682	22.29877149	20.51218006	15.50820855	50.53423658
DehaBAV1_1321	7.35305158	6.86131323	4.305235532	0	0
DehaBAV1_0793	2.569998611	3.502492144	4.213053932	7.099318409	0
DehaBAV1_0249	28.05581817	25.6601976	9.586737738	4.029377458	101.0684732
DehaBAV1_0858	14.92026971	13.49897852	21.53139329	22.60752696	0
DehaBAV1_0790	33.12442654	34.21129793	91.14310756	46.7837917	50.53423658
DehaBAV1_0945	8.994995137	10.25255257	34.05950803	7.449453634	0
DehaBAV1_0480	46.68830809	39.92867133	22.47153832	44.25561741	0
DehaBAV1_0470	50.40052831	35.27212776	24.46755466	18.92828473	0
DehaBAV1_0455	34.33803699	28.95092838	12.8785121	36.45602855	0
DehaBAV1_1004	26.12831921	21.36779923	20.30948783	18.5781495	0
DehaBAV1_1376	66.53440847	67.55262331	61.67688398	60.37312724	0
DehaBAV1_0681	196.462116	179.7520419	97.90058821	168.162782	101.0684732
DehaBAV1_1078	78.31356877	70.86240606	51.50722349	86.40073037	0
DehaBAV1_0118	0.499721952	0.245396249	0.135128156	0	0
DehaBAV1_1309	0.571110802	0.713933642	1.523067786	0	0
DehaBAV1_1062	2.35583206	4.007828311	17.10935864	0	0
DehaBAV1_0921	209.0979425	132.1142249	73.26807224	138.4325021	50.53423658
DehaBAV1_0194	1.998887808	3.477567186	21.05376554	21.99822568	0
DehaBAV1_0281	0.713888503	1.170629404	0.964226127	0	0
DehaBAV1_0848	106.3693869	107.070622	110.3392035	87.96946816	50.53423658
DehaBAV1_1109	22.13054359	28.51721317	22.01638239	8.058754915	0
DehaBAV1_0073	0.214166551	1.984901725	3.789340429	11.12869587	0
DehaBAV1_1047	7.495829281	9.562166838	60.09829266	0	0
DehaBAV1_0110	0.428333102	0.140221358	0.626405737	0	0
DehaBAV1_0164	23.05859864	17.63088933	21.31666051	25.67746791	0
DehaBAV1_1256	16.99054637	17.93866423	33.4640083	23.21682824	0
DehaBAV1_0889	13.56388156	15.63156271	15.70991489	0	50.53423658
DehaBAV1_0660	27.98442932	24.58027655	11.6932647	11.12869587	0
DehaBAV1_0335	2.42722091	18.81252133	7.54777485	18.5781495	0
DehaBAV1_1031	4.640275269	4.660243593	8.382624882	4.029377458	50.53423658
DehaBAV1_0994	18.91804533	18.68762872	9.494556138	18.5781495	0
DehaBAV1_0046	5.354163772	4.774513127	6.28867489	7.099318409	0
DehaBAV1_0732	14.84888086	15.78397919	13.97786638	14.19863682	0
DehaBAV1_0092	23.91526485	19.12660936	30.71328299	26.63690442	0
DehaBAV1_0673	76.45745866	82.67814811	36.22209495	90.2384764	0
DehaBAV1_0014	7.638606981	9.15760613	25.09971245	8.058754915	0
DehaBAV1_0066	2.213054359	13.00751499	134.1228318	25.67746791	101.0684732
DehaBAV1_1097	1.499165856	2.804462649	12.41131561	0	0
DehaBAV1_0668	4.354719868	4.373116307	5.035863416	22.3483609	0
DehaBAV1_0572	78.74190187	78.81146867	64.31978078	88.31960339	0
DehaBAV1_1153	95.51828169	84.92928534	41.65130229	26.28676919	0
DehaBAV1_R0045	0.142777701	0.438410426	0.380766946	0	0
DehaBAV1_0912	26.69943001	18.03996825	22.32383319	16.11750983	0
DehaBAV1_0266	51.54274991	71.00237279	51.68476177	48.89429615	0
DehaBAV1_0457	93.44800503	74.21310731	43.43726505	86.30976121	0
DehaBAV1_1067	30.05470597	33.12221838	20.24874866	40.83554123	0
DehaBAV1_1232	11.99332685	13.09619519	10.10892133	7.099318409	0
DehaBAV1_0703	55.32635898	54.24754484	161.9781879	15.50820855	0
DehaBAV1_0974	15.63415821	18.469894	33.65465999	15.15807332	0
DehaBAV1_0953	9.494717089	124.4087502	3.961126655	31.0164171	0
DehaBAV1_0636	50.11497291	54.90457535	28.13327105	45.21505392	50.53423658
DehaBAV1_0090	2.070276659	8.464951831	17.72426026	7.099318409	0
DehaBAV1_0679	61.1802447	53.8808836	26.02099202	27.59634092	0
DehaBAV1_0521	22.27332129	23.04592501	15.84450662	0	0
DehaBAV1_0452	77.74245797	70.43472381	38.8989677	56.34374978	0
DehaBAV1_R0033	0.713888503	0.259496985	0.202692234	0	0
DehaBAV1_0717	44.68942028	39.57804294	31.43187033	8.058754915	0
DehaBAV1_0252	11.99332685	12.73137235	17.3675744	15.50820855	0
DehaBAV1_0123	3.712220215	4.808542186	17.41052096	7.449453634	0
DehaBAV1_1310	2.712776311	3.069941491	3.967415142	0	0
DehaBAV1_0520	17.06193522	14.04277867	9.961216198	4.029377458	0
DehaBAV1_0822	4.140553317	5.509000669	1.651907455	0	0
DehaBAV1_0962	20.48860003	24.54923204	5.128045016	0	0
DehaBAV1_0950	5.568330323	5.618629907	4.028690733	11.47883109	0
DehaBAV1_0552	17.27610177	13.68554899	6.184452742	33.12692154	0
DehaBAV1_0099	0	0	0	0	0
DehaBAV1_1023	4.85444182	4.503052427	4.507927766	0	0
DehaBAV1_1351	3.854997916	4.508171147	6.847516548	0	0
DehaBAV1_0798	26.98498541	30.76566112	47.38635115	28.74740886	0
DehaBAV1_R0039	5.211386071	7.980671678	3.691406768	7.449453634	0
DehaBAV1_0362	27.05637426	34.67231365	23.5399866	18.5781495	101.0684732
DehaBAV1_0412	106.2266092	96.48618487	43.137712	73.07056089	50.53423658
DehaBAV1_0381	20.98832199	12.45759198	11.42929688	8.058754915	0
DehaBAV1_0986	2.784165161	2.903357562	0.896662049	8.058754915	0
DehaBAV1_1228	16.20526902	18.90840759	17.1523052	21.64809045	0
DehaBAV1_0199	3.069720563	2.640301555	13.51174275	0	0
DehaBAV1_0833	4.497497569	6.403901484	3.199592762	0	0
DehaBAV1_1373	7.709995832	7.31299344	3.433191004	14.89890727	0
DehaBAV1_0543	5.282774922	7.487002992	17.59488416	14.54877204	0
DehaBAV1_0269	12.42165995	17.06004185	4.096254811	29.35671014	0
DehaBAV1_1154	32.48192688	27.22276008	22.55743144	8.058754915	101.0684732
DehaBAV1_1012	100.0871681	168.0194642	62.36671101	127.2362716	50.53423658
DehaBAV1_0753	94.37606009	57.39032295	29.46676	60.98242852	50.53423658
DehaBAV1_0613	30.91137218	25.65379269	28.26211072	8.058754915	50.53423658
DehaBAV1_0316	57.39663564	60.67100936	58.37253264	36.80616378	0
DehaBAV1_0227	4.640275269	8.161795465	7.73789011	8.058754915	101.0684732
DehaBAV1_1360	50.32913946	47.90517733	39.96220034	12.08813237	0
DehaBAV1_0359	108.225497	105.4118222	42.89260964	118.7267192	50.53423658
DehaBAV1_1101	7.067496179	6.131517086	6.62649528	4.029377458	0
DehaBAV1_0745	65.32079802	35.5142901	12.31967044	55.7344485	0
DehaBAV1_0083	43.76136523	48.0887779	71.67475825	31.0164171	0
DehaBAV1_0185	0	0	0	0	0
DehaBAV1_0058	13.63527041	18.16777681	35.65696481	0	0
DehaBAV1_0979	444.9667039	525.3244128	1245.295587	400.4785958	353.739656
DehaBAV1_0648	27.69887391	30.54929826	19.59718898	18.92828473	0
DehaBAV1_1294	0.428333102	1.073933035	3.328432431	0	0
DehaBAV1_1300	0	0	0	0	0
DehaBAV1_1177	7.067496179	3.437848237	4.925352782	0	0
DehaBAV1_1131	4.711664119	3.363945959	14.48118451	4.029377458	0
DehaBAV1_0869	53.47024887	47.60078542	52.16560808	51.35493582	0
DehaBAV1_0967	9.351939389	5.669112517	1.750377541	4.029377458	0
DehaBAV1_0898	24.2722091	25.50126028	35.97591974	22.60752696	50.53423658
DehaBAV1_1159	8.709439736	12.18819162	28.87540306	21.64809045	0
DehaBAV1_0649	42.40497707	54.84402329	40.07792661	61.8743304	0
DehaBAV1_0532	128.285764	98.51029498	33.80236512	54.23324534	0
DehaBAV1_0862	33.62414849	28.72877861	25.38200931	22.60752696	0
DehaBAV1_0596	153.8429724	124.1833298	187.8302245	164.3925706	151.6027097
DehaBAV1_1211	75.24384821	71.21381527	75.25672723	30.31614665	0
DehaBAV1_0409	19.91748923	28.68174571	45.38350991	15.15807332	50.53423658
DehaBAV1_0644	146.0615877	138.7957635	100.7314546	115.7574405	101.0684732
DehaBAV1_1291	2.284443209	2.966358484	3.69715883	7.099318409	0
DehaBAV1_1165	23.2727652	24.27862737	55.35783951	29.70684537	0
DehaBAV1_1120	10.99388295	11.13465257	12.76171298	0	0
DehaBAV1_1217	55.54052553	52.48589973	39.21324342	23.21682824	0
DehaBAV1_0811	15.77693591	14.11729376	4.391128644	8.058754915	101.0684732
DehaBAV1_1251	2.070276659	1.65059768	3.740105386	7.099318409	0
DehaBAV1_0275	2.35583206	4.431088407	6.724428941	7.099318409	0
DehaBAV1_0174	17.63304602	29.6229185	22.26830966	26.98703964	0
DehaBAV1_0863	72.88801615	53.19477618	37.33977827	34.69565933	0
DehaBAV1_0687	19.20360073	18.02842285	14.49376148	21.99822568	0
DehaBAV1_0380	36.69386905	25.1160222	17.2335191	15.50820855	0
DehaBAV1_0729	5.211386071	4.891657886	5.91419643	15.15807332	0
DehaBAV1_1287	0.356944251	0.26634198	0	0	0
DehaBAV1_1258	5.711108024	6.408073322	4.028690733	0	50.53423658
DehaBAV1_1123	11.2080495	11.69956833	26.96688912	12.08813237	0
DehaBAV_RF0054	0.214166551	0	0	0	0
DehaBAV1_1204	138.1374253	157.3346927	282.4633586	178.6821766	101.0684732
DehaBAV1_0034	18.27554568	18.38719947	13.37607817	12.08813237	0
DehaBAV1_0917	180.6137912	257.9908397	107.2704475	120.7462545	0
DehaBAV1_0147	1.284999305	2.219149599	4.901271685	0	0
DehaBAV1_0751	45.90303074	36.02771627	13.08749282	4.029377458	0
DehaBAV1_R0004	0.142777701	0.193014177	0.135128156	0	0
DehaBAV1_0010	11.42221605	11.05761147	20.19322513	7.099318409	0
DehaBAV1_0989	0.142777701	0.26634198	1.811653132	0	0
DehaBAV1_0154	4.640275269	4.359718284	16.76578619	0	0
DehaBAV1_1133	0.07138885	0.066482808	16.6782838	0	0
DehaBAV1_0134	0.285555401	0.682086553	8.554411108	0	0
DehaBAV1_0300	0	0	0	0	0
DehaBAV1_1330	34.26664814	66.59644593	424.288198	75.62216973	50.53423658
DehaBAV1_0419	8.352495484	7.467238399	7.228283495	15.50820855	0
DehaBAV1_0928	121.2182678	102.0937062	91.21481442	86.05059515	0
DehaBAV1_0027	23.20137635	19.98705475	19.39449674	44.34658658	0
DehaBAV1_1074	232.0851523	194.4748392	113.0344053	121.705691	50.53423658
DehaBAV1_0880	9.70888364	10.61858493	25.16727653	7.099318409	0
DehaBAV1_0757	44.83219798	36.93918941	16.69875854	19.53758601	0
DehaBAV1_1317	8.638050886	4.318767096	3.089082128	4.029377458	0
DehaBAV1_0070	0.856666204	3.294597383	6.301251863	0	0
DehaBAV1_0243	46.25997499	33.62110988	14.90543444	43.2961809	0
DehaBAV1_0236	12.56443765	8.212983637	18.07412119	11.47883109	0
DehaBAV1_0178	11.6363826	10.98558359	27.15125232	60.72326246	0
DehaBAV1_0056	9.566105939	19.70947781	25.51821032	30.66628187	0
DehaBAV1_0919	41.19136662	38.95230111	45.68574508	0	50.53423658
DehaBAV1_1063	8.638050886	11.2782621	15.07668424	11.12869587	0
DehaBAV1_0906	0.713888503	0.238345881	0.135128156	0	0
DehaBAV1_0021	28.98387322	52.77003866	103.1788719	75.88133579	50.53423658
DehaBAV1_0428	51.61413876	44.80308778	37.45657739	53.27380883	0
DehaBAV1_1343	91.16356183	112.0804113	97.31766545	38.37490156	50.53423658
DehaBAV1_0760	25.4144307	16.76140466	5.791645247	38.11573551	0
DehaBAV1_0176	9.280550538	9.70044709	9.433280547	11.12869587	0
DehaBAV1_0812	8.923606287	8.052432668	3.961126655	14.19863682	0
DehaBAV1_1139	17.77582372	15.86137282	8.254321638	15.50820855	0
DehaBAV1_0820	14.06360351	15.06658492	6.805106417	28.39727364	0
DehaBAV1_1182	8.066940083	11.19802259	16.47720084	0	0
DehaBAV1_0290	8.138328934	10.48832465	12.93403563	22.3483609	0
DehaBAV1_0534	222.0907133	209.8710207	49.76313443	110.2268599	0
DehaBAV1_0965	12.56443765	10.58645533	14.8871054	15.15807332	0
DehaBAV1_0738	14.99165856	16.01471915	17.11564713	26.98703964	50.53423658
DehaBAV1_R0048	0.07138885	0.066688182	0.356149425	0	0
DehaBAV1_0927	65.32079802	52.76773511	40.16381972	59.67285679	0
DehaBAV1_0246	1.427777006	1.606498215	1.953069775	7.449453634	0
DehaBAV1_0055	54.25552622	49.50438858	109.4968435	14.54877204	0
DehaBAV1_0277	0	0.066688182	0	0	0
DehaBAV1_0690	34.90914779	40.07599131	46.87045605	22.25739173	50.53423658
DehaBAV1_1243	26.12831921	22.01589552	17.38643987	11.47883109	0
DehaBAV1_0469	24.34359795	14.30461189	7.910212762	38.37490156	0
DehaBAV1_1304	5.496941473	8.071497854	18.81050114	8.058754915	0
DehaBAV1_0727	7.567218131	7.871638682	11.20198712	7.099318409	0
DehaBAV1_1169	58.25330184	66.87944734	157.6793895	18.22801428	0
DehaBAV1_1265	89.23606287	71.17935604	72.60968764	64.4025047	50.53423658
DehaBAV1_0321	190.251286	215.8875968	540.976667	202.9494105	101.0684732
DehaBAV1_0800	14.27777006	19.07836174	26.8369766	7.449453634	0
DehaBAV1_0346	27.12776311	28.18821237	63.71531044	15.15807332	0
DehaBAV1_1035	8.638050886	9.085860752	4.673425504	7.099318409	0
DehaBAV1_0795	63.39329906	92.50997647	229.5755568	82.37135292	0
DehaBAV1_0788	13.70665926	9.866883864	2.511911434	14.89890727	0
DehaBAV1_0259	9.423328239	11.33115809	3.709199378	7.099318409	0
DehaBAV1_R0038	0.214166551	0.303108568	1.363322108	0	0
DehaBAV1_1277	10.20860559	30.28343369	4.145489854	15.50820855	0
DehaBAV1_0888	429.9750453	457.1252228	268.9267592	330.0037438	202.1369463
DehaBAV1_0368	45.11775339	41.78136222	48.31967127	41.53581168	0
DehaBAV1_1324	79.17023498	61.20641376	120.7449957	55.12514722	0
DehaBAV1_1027	57.53941334	67.44538707	126.6649442	58.80438945	0
DehaBAV1_0951	33.48137079	31.16946517	16.48977782	22.25739173	0
DehaBAV1_0192	11.27943835	8.3830433	11.86505093	4.029377458	0
DehaBAV1_0218	8.566662035	14.50802297	108.8997345	26.37773836	50.53423658
DehaBAV1_R0002	0	0	0	0	0
DehaBAV1_1370	12.6358265	25.74127752	141.0192861	47.67569359	50.53423658
DehaBAV1_R0016	0	0.029921593	0.178074712	7.099318409	0
DehaBAV1_0670	57.25385794	56.61668478	60.50996562	90.17094178	101.0684732
DehaBAV1_0599	1.499165856	1.180828048	2.438058869	0	0
DehaBAV1_1378	45.97441959	58.04103138	72.13045061	33.3860876	0
DehaBAV1_R0026	0	0	0.067564078	0	0
DehaBAV1_0148	1.499165856	4.502651139	4.815378573	7.099318409	0
DehaBAV1_0828	4.497497569	3.109541661	1.209864917	0	0
DehaBAV1_0115	21.70221049	33.94600077	198.808896	39.68447329	0
DehaBAV1_0464	24.20082025	16.25300447	13.05029833	7.099318409	0
DehaBAV1_1198	7.852773532	6.474582163	19.82396231	7.099318409	0
DehaBAV1_0715	17.27610177	25.89780858	11.63198911	26.28676919	0
DehaBAV1_0161	114.0079939	164.0653927	199.6615387	221.7632915	101.0684732
DehaBAV1_1134	19.06082303	18.81199989	14.53041955	11.12869587	0
DehaBAV1_0787	4.997219521	4.460503202	1.836270654	7.099318409	0
DehaBAV1_0859	2.641387461	4.538750505	9.531214208	0	0
DehaBAV1_0513	25.34304185	39.98656014	31.71991925	20.14688729	0
DehaBAV1_0244	18.13276797	11.48063782	4.452404236	39.68447329	0
DehaBAV1_0216	37.3363687	63.28629978	85.75055829	82.72148814	151.6027097
DehaBAV1_0499	4.711664119	5.437210342	7.615338928	11.12869587	0
DehaBAV1_0823	2.42722091	2.341172214	1.031790205	0	0
DehaBAV1_0840	2.712776311	4.219711758	15.89949372	0	0
DehaBAV1_1060	8.066940083	10.45711356	4.151778341	4.029377458	0
DehaBAV1_0675	91.87745033	74.65202646	44.58117516	186.6499623	0
DehaBAV1_0948	4.069164467	2.669273417	1.480121229	0	0
DehaBAV1_0707	7.995551233	6.945866543	6.583548723	0	0
DehaBAV1_0315	16.77637982	27.22339181	75.49339541	52.92367361	0
DehaBAV1_0997	1.356388156	3.785800627	23.89506317	0	0
DehaBAV1_0611	10.99388295	16.5566416	32.97273072	26.98703964	0
DehaBAV1_0667	34.12387044	42.92828945	37.43771193	102.6092094	0
DehaBAV1_0981	4.568886419	4.139118755	5.650228605	0	0
DehaBAV1_1174	41.19136662	36.55309242	42.76269712	30.05698059	50.53423658
DehaBAV1_1281	20.06026693	12.95234382	4.931641268	12.08813237	0
DehaBAV1_0642	2.641387461	3.713576826	8.830955907	0	0
DehaBAV1_0288	0	0	0	0	0
DehaBAV1_0138	1.284999305	3.158396897	6.030995551	0	0
DehaBAV1_0518	22.13054359	17.98259996	16.12680348	26.63690442	0
DehaBAV1_1271	22.34471014	60.46943575	14.8871054	23.21682824	101.0684732
DehaBAV1_0688	26.27109691	30.45198811	119.2438633	44.60575263	0
DehaBAV1_0450	30.48303908	29.48290963	15.36005395	19.18745078	0
DehaBAV1_0015	9.351939389	10.32547909	56.81227036	45.56518914	0
DehaBAV1_1226	18.34693453	13.83448262	15.51297472	23.21682824	0
DehaBAV1_1323	6.282218826	7.837567979	3.027806536	7.099318409	0
DehaBAV1_0405	15.63415821	14.76642307	18.69423844	23.21682824	0
DehaBAV1_0558	24.62915335	34.84224177	20.41999846	23.56696346	101.0684732
DehaBAV1_1107	30.48303908	27.73499234	19.62234293	25.32733268	0
DehaBAV1_0969	5.925274574	5.416511629	2.468964878	0	0
DehaBAV1_0683	210.4543307	267.1984783	800.9607381	327.3749072	0
DehaBAV1_1125	19.84610038	19.94890166	8.781720863	11.47883109	0
DehaBAV1_1118	17.41887947	14.99096303	17.95157001	7.449453634	0
DehaBAV1_0029	59.18135689	47.26941716	48.35793862	39.33433807	0
DehaBAV1_1010	37.6219241	84.35338635	50.26752541	25.32733268	50.53423658
DehaBAV1_0658	101.6577228	74.9599845	37.94156648	79.56057802	101.0684732
DehaBAV1_0357	32.62470458	33.2600169	16.23209848	36.89713294	0
DehaBAV1_0721	85.95217575	64.98804972	98.51441697	101.9089389	50.53423658
DehaBAV1_0065	0.713888503	8.906112549	102.7856766	36.54699772	0
DehaBAV1_0350	49.18691785	42.65898184	29.005852	57.30318629	0
DehaBAV1_1086	12.2074934	13.45349254	5.699463648	23.56696346	0
DehaBAV1_1349	10.13721674	14.25415531	18.54706974	26.98703964	50.53423658
DehaBAV1_0541	96.3749479	125.3337782	49.52485698	99.44829925	0
DehaBAV1_0231	7.28166273	20.75991353	10.17594898	0	0
DehaBAV1_0104	1.356388156	1.200464404	4.22509448	0	0
DehaBAV1_1002	5.282774922	13.1193806	93.52710355	55.47528244	0
DehaBAV1_1080	9.566105939	6.304936551	3.746393873	0	0
DehaBAV1_1289	24.2722091	24.23289864	50.79546106	23.56696346	0
DehaBAV1_0865	16.84776867	11.96763043	9.08917167	4.029377458	0
DehaBAV1_0257	175.9021271	327.6395436	133.8968341	178.150103	50.53423658
DehaBAV1_0333	18.34693453	148.6477675	86.8657081	127.2362716	0
DehaBAV1_0619	6.710551928	5.98559638	6.258305307	8.058754915	0
DehaBAV1_0050	14.06360351	11.35616964	23.04242053	25.67746791	0
DehaBAV1_0087	0.713888503	1.098447247	1.93474074	0	0
DehaBAV1_1225	93.37661618	101.8182118	128.1565696	58.61275802	0
DehaBAV1_0629	35.55164745	27.21692868	35.52130022	32.77678632	0
DehaBAV1_0896	4.140553317	3.34398545	2.868060859	0	0
DehaBAV1_1356	19.13221188	19.14216758	13.95953735	4.029377458	0
DehaBAV1_0044	14.70610316	8.965028733	12.97698219	11.12869587	0
DehaBAV1_0403	2.070276659	2.016825949	0.626405737	0	0
DehaBAV1_1302	38.19303491	70.55151499	485.3669002	77.1233729	50.53423658
DehaBAV1_0899	62.10829976	76.62343834	111.0969824	74.312598	50.53423658
DehaBAV1_0595	100.3727235	82.74875207	82.0388254	98.7480288	50.53423658
DehaBAV1_0550	55.39774783	59.03473385	61.32702304	39.68447329	101.0684732
DehaBAV1_R0051	0.07138885	0.029921593	0.067564078	0	0
DehaBAV1_0145	0.499721952	2.531028657	4.545122261	0	0
DehaBAV1_0331	2.569998611	7.657119911	4.305235532	12.08813237	0
DehaBAV1_0639	60.10941195	64.40218442	64.55805824	67.82258087	0
DehaBAV1_0169	57.53941334	73.98931606	36.91606477	126.1858659	151.6027097
DehaBAV1_1362	15.91971362	13.65992366	34.11449513	7.449453634	0
DehaBAV1_0398	34.90914779	60.49155363	191.2465471	22.25739173	0
DehaBAV1_1143	8.709439736	10.28638572	18.63871491	0	0
DehaBAV1_0326	20.06026693	23.76908153	35.8522957	30.66628187	50.53423658
DehaBAV1_0765	67.24829698	61.08203131	38.7277179	59.76382596	151.6027097
DehaBAV1_0908	9.280550538	8.316705304	7.0198392	4.029377458	0
DehaBAV1_0478	87.52273046	76.63319643	57.00453133	91.13037828	0
DehaBAV1_0208	1.284999305	8.232391892	10.68662845	0	0
DehaBAV1_1151	7.35305158	6.046995959	8.407242404	0	0
DehaBAV1_1218	12.84999305	13.58289298	24.98237691	22.60752696	0
DehaBAV1_0307	26.34248576	24.58522113	27.8687668	11.47883109	50.53423658
DehaBAV1_1156	11.0652718	9.995940272	22.16408752	11.12869587	0
DehaBAV1_R0041	0.07138885	0.341595278	0.067564078	0	0
DehaBAV1_1167	56.11163633	79.05459962	397.1432342	63.79320342	50.53423658
DehaBAV1_1371	15.84832477	14.8879578	12.90312962	7.099318409	0
DehaBAV1_0512	23.62970945	24.13533583	20.80076541	4.029377458	0
